10/2d~~1~1~1/1~1~1e~~~1/1~~~gd~d~1/1hbahfagb1/2cb1gb1e1/1fdcg1f~c1/10
10/1g~1~~~a~1/1f~~~~~f~1/2~f~~f1~1/1~~b~~e~e1/1~g1b~1~d1/2b1dadef1/10
10/2~~~~~~d1/1~~~~~~~2/1~~df~1~2/1~~bae~~~1/1~~hch~a~1/1~febe~ce1/10
10/1~~~~e~~~1/1~~1~d~~~1/1~~h~a1~~1/1~~1b1~~~1/1~e1ad~g~1/1h1dg1~b~1/10
10/1~~~~f~~2/1~~~c1~~a1/1~~~g~~h2/1h~~c~~1b1/1bdeagegh1/2ga1fd1g1/10
10/1~1~~1~~~1/1~d~~1~~h1/1~a~~~~~b1/1~1~~~c~2/1dgag~a~~1/1hecdbdce1/10
10/2~~~f~~h1/1a~~~ec~b1/1h~~~hd~g1/1b~be1gd2/2afghbhb1/1adbcbfdc1/10
10/1~1f~~~~g1/1~~1b~~~2/1~~~1~~~~1/1~~g~~~g~1/1~f1d~c3/1hd~bhf~c1/10
10/2~~~~~1h1/1e~~~~~~b1/2~dfg~dh1/1~aceb~3/1egeca~bd1/1cebdc~1f1/10
10/1cg~~~c~~1/1aef~~1~~1/1e1cbd1~h1/1bgdefd~c1/1ehchah~e1/2c1febcg1/10
10/1~~~~a~e~1/1~~~~1~1f1/1~f~e~~~e1/2g~1~g~2/1f1~g~d~2/1gd~b~1ba1/10
10/1~1~~~g3/1~~~~~1~2/1~~~~~fb~1/1~~~~~d1~1/1ehgaca~d1/1aehcf2b1/10
10/2~~~~1~c1/1f~~~~~~d1/1e~~~~~3/1ge~~~~g~1/1adbh1~f~1/2ah1cbg2/10
10/1f~~~1~ec1/2b~~h~3/1~eh~c~~~1/1~h1~1~~~1/1~1e~1bf~1/2edb~edh1/10
10/1~~1~1~~e1/1~~h~~~~2/1~~a~h~~b1/1~~b~c~~d1/1~e1~d~~2/1bc~dgagc1/10
10/1~~1e~a~c1/1~1fc~f3/1~~2c1~~1/1~~~~e~~~1/1a~~g1~~b1/1g~b1~~~e1/10
10/1~~~~~~c~1/1~~f~~~1~1/1h~a~ga~b1/1dg1~hbge1/2bgdg1fg1/2gcgbdge1/10
10/1~f~~dg~h1/1ge~~gd~d1/1h1~~1edh1/3~~hdag1/3~fb1c2/1acbgehfb1/10
10/1~~1e~4/1~~h1~~~~1/1~dc1~~~~1/1hadbeb~~1/2bacgfbh1/1cf2agab1/10
10/1~~d~~h~~1/1~d1~~d~~1/1~1~~~1~~1/1d~fe~h~~1/1a~2gdf~1/2hehfagf1/10
10/1~~~~~~~a1/1d~~~~~~c1/1g~~d~~~a1/1f~~1~~~2/2eg~~ch2/1~hf~~geg1/10
10/1hf~b2c~1/2h~a~~bc1/2d~gf~1g1/1~1~1a~3/1db~ce~~~1/1cghbcgeg1/10
10/1~~~~~~~2/1f~~~e~~~1/1g~1~f~~~1/1f~~~d~~c1/2a~g1bch1/2bae1hgd1/10
10/1~e2~ag~1/1~1~~~2~1/1~~~~~1~f1/1~aeac~~d1/1~gfcbh~e1/1bce1gdch1/10
10/1~~~c~~~2/1~~~b~~~~1/1~1~f~~~~1/1~e~1~~g~1/1~g1~d~b~1/1acedfcda1/10
10/1~~1~f~~~1/1~f~~h~b~1/1dgcae~fc1/1cehb1geh1/1fc2dbg2/1dfcbecag1/10
10/1~f1~da~a1/1~gh~2~2/1~bc~1~~~1/1~a1ae~a~1/1~cahf~ha1/1edhdgebh1/10
10/1~~~e~c~~1/1h~e1~d~~1/1f~g~~1~~1/1b~bfh1c~1/1f~dag~e~1/1abhd1hda1/10
10/1ca~h~~1~1/1ae~1e~ca1/3b~c~1f1/1~fd~f~~g1/1fh1~dg~b1/2gaf1fc2/10
10/1~a2~edf1/1hc~c~g3/1f1~h~a~h1/2hbg~g~g1/1~ghbfa~e1/1cbd1ed1d1/10
10/2~~~~~~g1/1~~~~~~~a1/1~~~~~~~2/1~c~~~1~e1/1~1~~1cf2/1~fdae1dg1/10
10/1~~~~b~dh1/1e~h~c~3/1a~a~1~db1/1c~g~gfaf1/1heacfega1/1c1f1cab2/10
10/1af1~a~~c1/2gf~b~cg1/1~h1bd~a2/1~1~ghfc~1/1~bhfdcf~1/1gdchbdhg1/10
10/1~~1f2f~1/1d~~eg~1c1/1c~~ch~~e1/1g~a1dgd2/2hgchbfh1/1hbchaedc1/10
10/1~a~~~~~~1/1~c~h~~1~1/1~h1b~~1~1/1ha~1~~~~1/1gf~dgh~~1/1becfdbhe1/10
10/1c~1~~h~~1/1d~f~~1~b1/2~a~ba~2/1~~h~a1~2/1~~1~e~~~1/1dea~c~fd1/10
10/1f~b1gb~~1/2~d~1g~~1/1a~fh~1~c1/1g~1b~~~e1/2~gea~~f1/1~hcadecb1/10
10/1h~~~gfa~1/1ge~dah1~1/1f1~hbg1~1/2c~2a~~1/1g1cdbedh1/1ega1dabc1/10
10/1~c1~1~~~1/1~e~~~~~2/1h1~d~acb1/2f~edgf2/1ec~ghfe~1/3eacbfe1/10
10/2~~dhd~~1/2~~gd1~~1/1~~h2~~~1/1~~e~~1~~1/1~~g~a~cb1/1cbe1e~da1/10
10/1~1a~~g~~1/1g~d~~e~~1/1e~1~~1g~1/1gba~d~1~1/2dgbc~~h1/1dh1fefhc1/10
10/1g~1~h~~~1/2~1~c~~~1/2~g~d~~~1/1~ac~1~~b1/1~cg~~~~e1/1~hafbedf1/10
10/1~~~~~1~~1/1~~~~~~~~1/2f~e~~cf1/1~cad~~3/1~2e~~~~1/1~d~1cdfa1/10
10/1~~~1~1~~1/1~b~~~c~~1/1~f~~~1d~1/1~h~~fg1~1/1egcbcbd~1/1hfd1eafa1/10
10/1~~a~~ge2/1~~d~~ba2/1~~1~~1cg1/1~~~~hdfh1/1~~~~d2b1/1dhc~fbea1/10
10/1~1~~~~1~1/1~~~~~~1c1/1~~c~d~~b1/1g~1~1~~2/2hc~~~~2/1dfg~~hbf1/10
10/1~~c~1~1~1/1~~1~~~~~1/1~~~f~~~f1/1~~h1c~~2/1d~1~fb~d1/2e~dehbf1/10
10/1h~~h~~~~1/1fd~1~b~~1/1eb~c~g~~1/1ge~b~bg~1/1cf~f~1eg1/3~hg1dh1/10
10/2~~g1~~c1/1~~~e~~~2/1~~~1~~~~1/1~~~~~~~c1/1~~he~gfe1/1d~c1fdeh1/10
10/1~~~h~hg~1/1~~~b~b1~1/1c~~fdg~~1/1hf~agf~~1/1fafdhegc1/1hbe2f1h1/10
10/1b~~1~1~~1/1f~~e~1~2/1hb~c~a~~1/1chfghf~h1/2ehdc1~g1/2hd1eb~a1/10
10/1~b~1~1~c1/1~a~~~fha1/1~1~~~gb2/1~a~babhg1/1fb~gdaeb1/1gfeach1d1/10
10/1he~b~de~1/1e1~1~fa~1/2~~~~ah~1/2~~~gc1~1/1ed~hf1fb1/2h~cg~3/10
10/1~1~b~g~f1/1~~~1~1~2/1~~~~~~~2/1~~~hb~~~1/2~~da~~~1/1g~dehaef1/10
10/1~~~~~d~~1/1~~~~~e~~1/1~1h~~1~~1/1~~f~~1f~1/1~d1~1ae~1/1~1a~chc2/10
10/1~~1~~~1~1/1~a~~~~~~1/1~1~~d~~~1/1~e~~1~~~1/1~f~eg~~f1/2hdahcgc1/10
10/1a1~~f~~~1/1g~~~1~~~1/2~~eg~~~1/1~~~2~bh1/1a~~~~~3/2be~g~fh1/10
10/2~e~h~~~1/1h~1bd~~~1/1b1adgc~~1/1d~h2g~~1/1f~b~~e~c1/2fcbdc~a1/10
10/1h~~~~da2/2e~f~gc~1/1~gfd~b1~1/1f1dc~1~h1/1da1e~a~a1/1gfdag1db1/10
10/2~1~~f~2/1~~~~b1~~1/1~~~~d~~~1/1a~1~b1~~1/1c~~fe1~~1/1aecdh~h2/10
10/1~~~~~~~~1/1~~1~~g~~1/1~~d~~1~~1/1~~1~b~~~1/1hf1fd~~a1/1ba~1gh3/10
10/1~~~~2~2/1~~~~e~~~1/1~~~~g~~~1/1~b~~1~ba1/1~ad~d~h2/1dfgfh~eg1/10
10/1g~~~~~~~1/2~e~~f~~1/1~~h1ce~~1/1~~1~hg~h1/1~bf~cf~f1/1edg~d1be1/10
10/1~~~~~1~~1/1~eg~~~~~1/1~a1~~~~~1/1~b2f~be1/1~2dc~gd1/1hd1adfch1/10
10/1~~~~f~~c1/1~~~~b~h2/1~a~~1~f~1/1~1~~heg~1/1~~he1c3/1ab1gdadc1/10
10/1~~1~~~~~1/1~~~~~~~~1/1~~~1~~a~1/1~~1~1~h~1/1~1~c1fag1/1dhdg~1cf1/10
10/2~g~~~~~1/1~~1~~~~~1/1~~~~~~~~1/1a~~~~~~~1/2~~gc~~c1/1~~ahb1hb1/10
10/1~g1c1~g~1/1~bcg~~1~1/1~2b~~~~1/1~g~1c~~~1/1~1~ab1~e1/1bgef1f~a1/10
10/2h~cf~~g1/1~1~had~2/1a~~e1f~~1/1ecfd~1~~1/1adbg~g~~1/1dg1dacbg1/10
10/2~~~~~g~1/1~a~~~~1~1/1~c~~~~h~1/1~1~~~~1~1/1a1~1g~de1/1bc1hedab1/10
10/1h~~~~~~~1/1f~~~ab~~1/2~d~f1~~1/2~egc~fg1/1hfcfh~ab1/1a1acdfde1/10
10/1~b~~~~~~1/1~1d~~~1~1/1~~e~e~~~1/1~~1~d~~~1/1~~~~1~hb1/1aha~e~ba1/10
10/1~~~2fc2/1~g~ahb1~1/1~1cdbc~g1/1~gea1dfd1/1~fhdefcg1/1~1b2hdc1/10
10/1~~~a~bfd1/1~~~b~h1b1/1~~~1~1e2/1~~ch~gd2/1chd1~cf2/1gaehb1ha1/10
10/1db~h~~~2/3~e~~~~1/1c~~h~~~~1/2f~d~~~d1/1~1~1c~g2/1~f~gbe3/10
10/1~~~~~~~~1/1~~~~~~~~1/1~1~~~~g~1/2~~f~~c~1/1~~ce~~1a1/1~~1fea~g1/10
10/1~~~~1~~2/1~~~~~~~~1/1~~1~~~~~1/1~dh~~~~a1/1efbhb~~g1/1hedf1gah1/10
10/1~~1gc~~h1/1~~g2~~d1/1~~1c~a~2/1b~~h~f~2/1fc~1~a~d1/1haebeh~a1/10
10/2~2~1~~1/1~~~1~~~~1/1~~~1~~~~1/1~~ca~d~~1/1~hf1c1~g1/1bdahbg~f1/10
10/1~~~d~~~2/1~~~e~~~e1/1~~~a~~~2/1~~~c~g~2/1c~e1cbha1/1gbag1hed1/10
10/1~~1b~~~~1/1~~fh~~~a1/1~~efe~ah1/1~~hbg~hc1/1hc1g1d1h1/1aefdgaca1/10
10/1d~~~~g~~1/2~~~~ad~1/1~~~~b1f~1/1~d~~eaec1/1dgfege1g1/1b1ecegdc1/10
10/1~b~~abhe1/1~hg~fc3/1~fe~2d~1/1c1a~da1~1/1fcdg1d~d1/1gacfgh~c1/10
10/2~~~~~1~1/1~g~~~~h~1/1~c~~1~1~1/1~a~~c~h~1/1~b~~f~a~1/1g1cdbd1f1/10
10/2~~~~~~~1/1~1~~~~~~1/1~1~~h~~~1/1~~e~gda~1/1e~gcfch~1/1f~hg1d1a1/10
10/1~1~~hdg2/1~~~c1ea~1/1~~~d~2~1/1~f~1~g~h1/1~cf~~b~2/1bea~~a~f1/10
10/1~1h~~~~~1/1~~1~~f~~1/1~~~d~e~~1/1~a~ba1g~1/1~h~fb~e~1/1bg~1dhb~1/10
10/1~h3~a~1/1~e~~caf~1/1~d~~bf1d1/1g1~h1abc1/1eb~ebhfb1/1hfcha1cg1/10
10/1~1c~~g~~1/1~a1~~1~~1/1f1b~~~~~1/1a1g~~~~~1/1hbec~h~g1/1defbdaga1/10
10/1~f~cg~g~1/1~h~b1gh~1/1~b~2h1~1/1~f~1eg1~1/1~1fedcb~1/1dhbfg1g~1/10
10/1~~~~~1b~1/1c~~~~2~1/1b~~~~~ga1/1geh~de1b1/1fgd~fghc1/1bfeg1fba1/10
10/1~~ga~~3/1h~2~~1~1/2b~~~~f~1/2g~~~~3/1fb~~~eh~1/1aec~cag~1/10
10/1~~f~~~~d1/1a~1~~1~b1/2~~~~~~2/1~~1~~~~~1/1g~~1~~~~1/1bg~af~~d1/10
10/2~~1~1~~1/1~h~~~b~~1/1~1~~~1h2/1d~~~e~1~1/1b~~~1~e~1/2d~~~~h~1/10
10/1~~~~g~~~1/1~a~~bd~~1/1h1~afa~~1/1g~fd2~c1/2~acf~1f1/1h~b1b~fc1/10
10/2~~~~~~a1/1d~~~1~~b1/2h~~~~~2/1~b~~~h~~1/1~1~~c1~~1/1adf~dcf~1/10
10/1b~e1e~~~1/2~d~g~~~1/1~f1~bc~~1/1~d~~ga~~1/1fehe1d~h1/1cdaceg~g1/10
10/1c1g~~~1~1/1dfe~~cb~1/1cb1~~h1~1/1fhghgdf~1/1a2bf1cf1/1haedb2g1/10
10/1~~1eg~~2/1~~~gdf~~1/1~~~2c~g1/1h~~g~1~a1/1ad~e~a~2/1bafbhcba1/10
10/1f~~1~~~h1/2~f~~~~c1/1~~1~~d~2/1~1~~~eb~1/3b~~1g~1/1~hg~cfed1/10
10/2~~~1~~~1/1~~~~~c~~1/1~~~~~h~~1/1g~~c~a~~1/1c~h1h1d~1/1a~1hd2g1/10
10/1~~1~~d~2/1g1~~~1~d1/1d~~~~ea2/2~~~~1h~1/1~~~~f~eh1/1c~acaf1g1/10
10/1~~~c~~~~1/1~~~1~~e~1/1b~~h~~1g1/2~~1~~a2/1~~~caeb2/1hd~dgch~1/10
10/1g~~~1~b~1/1c~~~~~1~1/1hac~~~~~1/2bg~e~d~1/1be1~hgfe1/1d1dbfbea1/10
10/1~1~~~~1~1/1b~g~~~~~1/2~1c~h~~1/1c~~3~f1/2~~~~bdg1/1h~d~~f3/10
10/1h~fc~1~g1/1bge1~~~2/1cfdb~ba2/2egebadf1/1gd1cdc1b1/2eh1eafe1/10
10/1~~~~f~~~1/1~~1~be~~1/1fd~~2c~1/1ag~~~~ba1/1da~c~~ef1/2fhfabhg1/10
10/1~~~~~~~~1/1~~~~~~b2/1~~~~~~a~1/1~~~~d~1~1/1~~1d1g~2/1f~1fb1ga1/10
10/1~~~1~a1~1/1~~~f~f~~1/1~~~h~1~~1/1g~~f~~~~1/1fbgabebe1/1ach1chch1/10
10/1~~~~~g~~1/1~f~~2~~1/1~1~~~~~~1/1~1~f~~~a1/1f~~1da~2/1be1bedbg1/10
10/1f~~he~~a1/1c~~1b~~f1/2c~~1~~a1/1~e~~h~~2/1~ad~c~~2/1achbh~~d1/10
10/1d~~1~~~2/2~a~~~~~1/1e2~~1~~1/1b~1a~c~~1/1f~~ch1h~1/1d~1fe~db1/10
10/1~~e~~1~~1/1~~b~f~~g1/1g~g~c~~h1/1h~1~ef~d1/1c~1ba1gh1/1ecghbdae1/10
10/1~~~d~f~~1/1~~~f~1d~1/1~~~1~~f~1/1e~d1~eh~1/1hgf1~ae~1/1cach~gcg1/10
10/1~1~~~~1~1/1~e~cf~~~1/1~1h1g~~f1/1~~1cf~bh1/2gh1egea1/1dab~dfd2/10
10/1a~~~~g~~1/2~~g~1~~1/2~~1~ed~1/1~~~~1f1~1/1~bghcac~1/1e1fadhba1/10
10/1~1~~~~3/1~~~~~~1~1/1~~~1~~~~1/1~~bf~~~~1/1~cgec~1g1/1e1fbeb~2/10
10/1~1~1~~gf1/1~b~~~~h2/1~h~~~~1~1/1h1~e~~~~1/1dfb1e~~~1/2dh~a~ag1/10
10/1~ed~~~1~1/1~b1~1~bf1/1~1~g~fd2/1efafdg1b1/1fcfgcfeh1/1abebhgd2/10
10/1b~1c~~~~1/1f~~1~f~~1/2~~~~1~~1/1~~~~~1~~1/1~he~~~~~1/1ebd1~dhc1/10
10/1~~~~1e~~1/1~~~h~1~~1/1~~~g~~~~1/1~~~b~~~~1/1~~ha~~1~1/1eadgd~1b1/10
10/1~d~~~g~~1/1~1~~~eag1/1~~~1~1bc1/1g~~~~~3/1f1d~a~hf1/1cheg1~be1/10
10/2~~~~a1~1/1c~~~~1fh1/2~~~~1g2/1~~~~cbe2/1e~~ba1fg1/1b~behb1e1/10
10/1~1~~~d~~1/1~~~1~h~~1/1f~~~2~~1/2~~~a~~2/1~~~~hg~g1/1~a~h2fd1/10
10/1c~~~~~~f1/2~~~db~c1/2~~~2~h1/1ch~af~gb1/1gcad1ech1/3decdbd1/10
10/1~~~~d~ab1/1~~~eb~hd1/1~~gbda3/1~ehabh1b1/1gdfeh1df1/1abgdefha1/10
10/1~~~h~~~~1/1~~~1~~~~1/1~~~df~~~1/1~~~2~~~1/1~g~~fd~~1/1~h~b1gb~1/10
10/1d~d~~~1~1/2~1~~1~~1/1d~~a~g~~1/2~fecba~1/1~geb1fb~1/1ec1he2h1/10
10/1~~~~~~ef1/1~~~~~~d2/1~h~~~~1~1/1cf~~~b~g1/1hg1~~fcf1/1e2bdefg1/10
10/1~d~~~~~~1/1~1~~~1~~1/1~~~~~~~~1/1~~~~~~f~1/1~db~~~a2/1gegfa~eb1/10
10/1d~a~ch~~1/4~dc~~1/1~1~~1a~~1/1~~~c~1~~1/1eb~h~e~a1/1a1a2abc1/10
10/1~~1~b1~~1/1~~dhc~~~1/1~~abe~e~1/1bac1hfbe1/1d1ab1df2/1ab1dbfcb1/10
10/1~d~f~gh~1/1~c~c~e1~1/1g1~1~b~~1/1h~~fd1~c1/1cadhad~2/1fdbabe~a1/10
10/1~~~f~hb~1/1~~~e~fg~1/1~~~f~1e~1/1ed~1gf1~1/1gchgaeb~1/1cafdg1cb1/10
10/2~~~~~~~1/2~~a~~~f1/1ef~ec~~g1/1adgcha~h1/2ga1bcba1/1dch1chcb1/10
10/1~~b1~a~~1/1c~f~~1~~1/2~g~~~~~1/1~~1~c~~~1/1~he~b~ge1/1ba1~a~fh1/10
10/1~~~1c1~a1/1~~~~ag~2/1~c~~ghb~1/1~d~~daf2/1hfedegb~1/2dgh1eh2/10
10/1f~~~~bc2/1hg~~~e1~1/1b1~~~1~d1/1gh~~~~~f1/3b~dh~g1/2~echgcf1/10
10/1~2~~g~~1/1~~~~~1~~1/1~~~~1~~~1/1~~~~~~~f1/1e~g~~a~d1/2~a~~dfe1/10
10/1c1~~~~~e1/1d1ea~~~h1/1f~1e~~~2/2e1c~~~~1/1bh1d~acb1/1hagfhfgd1/10
10/1~~~~~e~~1/1dbfc~g~~1/1eg2~1~~1/1fd~~c~~~1/2chdf~~c1/3gbaha2/10
10/1c~h~h~d~1/2~1~1~1~1/2g1~~~1~1/1~a~~~~~~1/1a1~~~~~~1/1dgfc~f~2/10
10/1bg~~~~~~1/3~~~~~~1/1~~~1~~~~1/1~~hc~~~c1/1a~3~~2/1g~~bha~2/10
10/1~~~~h~1c1/1hg~~1~1d1/2d~~~~~h1/1b1e~~~fc1/1ac1ghf3/1edeb1hea1/10
10/1cd~~~~e~1/1fea~~bg2/1c1e~fc1b1/1adg~cf~g1/1ege~fa~e1/1cdgbg1~g1/10
10/1d~b~~~~~1/1e~hf~~a~1/2bag~hfg1/1gf1b~bcf1/2c2dag2/1bgebg1af1/10
10/2ec~~~~~1/1~3b~~~1/1~1~~h~~~1/1~1~~1b~~1/1~1~fed~d1/1gfhgc1gc1/10
10/1~~1~~~1~1/1~~a~~~~~1/1~~c~~~~g1/1~e1~c~~c1/1~g~~1~1a1/1f1~dfaed1/10
10/1~~2~ae2/1~~d1~2~1/1~~bg~b~~1/1e~a1~g~~1/1h~fedch~1/1fhgaf1cg1/10
10/1~~~~a~~~1/1~~~e1~~~1/1~~~1~~~~1/1~~~~~~~~1/1d~d~~hg~1/1c1ac~ehg1/10
10/1d1edg~ha1/1fgdfb~ab1/1hcg1g~ch1/1b1d~1~1b1/3a~ca1c1/1fcegbh1g1/10
10/1g~a~~~~f1/2~b~~gda1/1c~h~~f3/1f~cged~~1/1bhecgfb~1/2b2cbgd1/10
10/1~f~~1~~c1/1~1~g1~~2/1~d~cb~~~1/1b1~1da~c1/1c~~feh~g1/1g~hdhead1/10
10/1~~~~1~~b1/1~~~~g~~2/1d~~~1h~2/1bf~~~a~~1/1ea~~hf~~1/1d1cegb~c1/10
10/1g~3~~~1/1e~~~1~~~1/1h~~c~g~~1/2~ah~a~f1/2~ecebfd1/1bdgbhfba1/10
10/1~~2~gd~1/1~be~~ch~1/1bdc~d1da1/1fag~1dge1/1afe~1b1b1/1ghcb1ghd1/10
10/1~~~1~1h2/1g~~f~ec~1/1e~c1~be~1/1h~h~~ab~1/1gh1h~e1~1/2a1f~fhc1/10
10/1b~~e~~~~1/1ca~d~~~~1/1he~e~~~f1/1cb~1g~ac1/1gah~1fe2/1edb~e1f~1/10
10/1~ca~~~d2/1b2~~1e~1/1c1~~h~a~1/1ef~~1~d~1/1dc~~gh1~1/1gfbacadf1/10
10/1d~1~1~d~1/1a~~~h~a~1/1f~~~1~1~1/1cbe~~~~~1/1gfgb~cha1/2ebhgabg1/10
10/1d~~~~1~g1/1edb~~~ef1/2ch~~~ba1/1f1e~~~a2/1hcd~~af2/1bhca~feg1/10
10/1~~~~~~h~1/1~1~~~~1~1/1~~~~~de~1/1~~g~fba~1/1~~abhgc~1/1fg2cedg1/10
10/1~~~db~3/1~g~e1e~~1/1ae~hcg~g1/1fhd2hde1/1c2dgbeh1/1dh1ceacf1/10
10/1b~~1h~ac1/1e~~~1~e2/1f~ag~~1g1/1hfba~~1h1/2ec1~1dc1/1agdcagca1/10
10/2e~~~f~2/1hb~~~1~f1/1ef~ch1~a1/2c~fg1gb1/1~dfcadba1/1f1chdeac1/10
10/1~1~1~~e~1/1~b~~b~ad1/1~1~~h~1f1/1~e~ab~1g1/1~c~b1ba2/1gafch1d2/10
10/3~b~~~2/1~b~1~~~e1/1ah~a~~~2/1f1~1~~~d1/1de~hg~~g1/2c~f1b~c1/10
10/1~~~~f~c~1/1~d~~e~1~1/1a1~eg~~~1/1dgbda~~~1/2agfbgb~1/1gf1dgdca1/10
10/1~~gc~h1~1/1~~becb~~1/1~hdhb1h~1/1~feah1gh1/1dagbcaea1/1abf2gbe1/10
10/1~gdceh~c1/1~b2da~a1/1~a~~1b~e1/1~f~ac1~d1/1~g~ef1h2/1cfdhacdg1/10
10/1~a~~gc~~1/1~d~hb1h~1/1hg~b3~1/1ebcf~2~1/1fhed~hd~1/1bfa1dabg1/10
10/1~h~~~~d~1/1e1~c~~1d1/1ch~h~cbc1/1gafb~hab1/2h3cgh1/1hac1fhfe1/10
10/1b~e~~b3/1h~h~~1~~1/2~1~~1~~1/1f~1~bfah1/1a~a~ebe2/1d~hbadhb1/10
10/1~~~~~1e~1/1g~~~~~a~1/1f~~b~~1~1/1h~~hc~g~1/2b~dh~1~1/1dadfcfhe1/10
10/1~adfb~~~1/1~b1de~ed1/1~1gab~c2/1~dahe~eb1/1~1f1fgah1/1cachbh1a1/10
10/1f~1~2~~1/1b~g~~~e~1/1f~1h~~b~1/2b~e~b1~1/1b1cdada~1/1cgbgh1d~1/10
10/2~~~1~~~1/1~~~~h~~2/1~~~~a~cd1/1~g~~1f1e1/1~d~~~a~a1/1fcheg1~d1/10
10/1h~~~~~~b1/1a~~~~~1f1/2~~~~b~h1/1~~~~~1f2/1e~~~~~d~1/1chcde~a~1/10
10/1a1~d1~h~1/1d~~f1~gb1/1ga~1a~hg1/1hf~ge~1c1/1b1hcda3/1efedfecg1/10
10/1~efe~e~~1/1~c1gah~g1/1~1~fg1~f1/1~h~bde~h1/1gbga2~e1/1cecdceg2/10
10/1~a~~g~g~1/1~1~~f~f~1/1~~~~1~1~1/1~f~~h~a~1/1~d~~1~h~1/3e~e~1d1/10
10/1~~e~~~~b1/1~hc~a~~g1/1~f1~c~g2/1edh~1~f~1/1bfa1gbgc1/1acbcfc1d1/10
10/1~~~~1~~~1/1~~~~~~~e1/1~~~~~~~h1/1bd~f~~~f1/1af~e~~~h1/3b1de1a1/10
10/3~1~~~~1/1~~~~~~~~1/1~~b1~~~a1/1~~1~~~~g1/1~g~a~~d2/1afbfhdha1/10
10/1~~e~b1~c1/1~~1~f~~h1/1~~~eh~gf1/1ah~dbdhb1/1da~e1bcf1/1g1~bd1fd1/10
10/1~~~~fe1~1/1~~~~bf~~1/1~~~~2~a1/1~~g~~~hc1/1~~fghebf1/1fc1aegfe1/10
10/1~~~~~~~~1/1~~~~~~~~1/1~~a~~b~~1/1~~g~a1~a1/1~~4e2/1b1~~g~ae1/10
10/1~~~~2~~1/1h~~~1g~~1/3~~cbg~1/1~~~ghfd~1/1d~befb1g1/1cefg2hf1/10
10/1~~1~~~e~1/1~~~~~~a~1/1~~~~~~1~1/2~~fc~d~1/1d~e1b~a~1/1a~bfc1bd1/10
10/1e~~1b~~~1/1g~~2~~~1/2~~~~~a~1/2~~~~~1~1/2beheg~~1/1ahab1bg~1/10
10/1~~~~h~~~1/1~~~~e~~~1/1~f~~a~~2/1~d1~1~c~1/1~1dch~b~1/1feb2bda1/10
10/1f~~~g~3/2d~e1~~d1/1ae~f~b~f1/1e1~a~1h2/1g1hc~ebc1/1efgd~afd1/10
10/1b~~1~~~~1/1d~~~~g~~1/2~~~bd~e1/1e~f~1hfg1/1b~b~c1ae1/1c~gagbh2/10
10/1~~~2~~2/1~~~~~~~g1/1b~~de~dc1/1g~~cacgh1/2a~eb1a2/1fhg1afg2/10
10/1~g~1g~~~1/1~c~f1~~c1/1~1~2e~b1/1~c~dbh1c1/1~a~fhae2/1h1h1fdch1/10
10/1~~1cg~~b1/1h~efe~~2/1b~hb1b~b1/1c~fgbh~f1/2d1chcdb1/1hecageag1/10
10/1~a~~~b~b1/1~d~~~dbc1/1~1~~~ha2/1~cb~d1h~1/1fad~g~1c1/1agfebebf1/10
10/1~~~~2~f1/1~~~~~h~2/1g~~~fa1~1/2~a~2~~1/1~~1~~~~~1/1e~e~h~~g1/10
10/1dh~e~a~~1/3~de1~~1/1~~~1dfb~1/1e~~~2g~1/1afg~1had1/1hdh~a1b2/10
10/1f~~~~~e~1/2~~~c~f~1/1~~~~d~a~1/1~c~~f~g~1/1ca~~1d1f1/1hfh~ged2/10
10/1hb~chd~h1/2c~1d1~2/1g1~g1ef~1/1ce~bd1hd1/1ef~3dh1/1agaeh~ce1/10
10/1~1b~~~~~1/1c~1~1f~~1/1h~~g~d~~1/1g~~dh1~~1/3~1a~~c1/2b~~fa~b1/10
10/1g~~~~~~~1/2~eg~~~~1/2~d1~~~~1/1~~1~~~~~1/1d~e~~d~~1/1fb1bdgef1/10
10/1h~2~~g~1/1d~1~~~1~1/2~e~~~~~1/1~~b~~~~d1/1~~1g~c~2/1e1gbghgc1/10
10/1~~~h~~~~1/1~~1a1~~~1/1~~2a~c~1/1d~~~h1a~1/2~bc1~e~1/1~e1b~ed2/10
10/1~h~h~~e~1/1~1~1~~fc1/1~~~~e~3/1~~~~g~~~1/1~~~~1h~~1/1~cgfag~a1/10
10/1~~g~~~1~1/1~~1c~f~~1/1c~~h~1~b1/1hdab~~~g1/2e3d~2/1fhah1g~e1/10
10/1~~f~~~~~1/1~~1~~~h~1/1~d~~d~1~1/1h1~gc~~~1/1fd~abe~~1/1gacdehb2/10
10/1~c~b~~d2/1~d~hb~h~1/1~1~fcd1e1/1~d~cfagh1/1~hf1afbd1/1gfaedgac1/10
10/2~1~~~e2/1~~~~~~hd1/1~~~~~~3/1~b~d~ab~1/1h1~f~cgf1/1geac~1dc1/10
10/1~~dg1~1~1/1~~be1~1~1/1~~1dc~~~1/1~f~ch~h~1/1cb~2fd~1/2heg1hce1/10
10/2d~~~~hd1/1~1~~~~1a1/1~~~~~d~2/1~bc~~ga2/1bhe~~hg2/1de1df1fc1/10
10/1~~1~~b~~1/1~~f~~h~~1/1d~1~~ca~1/1fh1a~1da1/1e2geagf1/1bgcbgd3/10
10/2~d~~~hc1/2gf~~d1e1/1~bab~b~c1/1~c1eac~f1/1efda1bdh1/1gaf1fagf1/10
10/1~~c~~~~~1/2~e~~~~~1/1~~a~~c~~1/1~gef~h~~1/1g3~d~f1/1eh2a1~d1/10
10/1~1b~~~1~1/1~e1~~~1~1/1~2~~~1~1/1dh1d~~c~1/1c1dh~~fg1/1fegbd~hd1/10
10/1~~~~~a~d1/1~~~~~1~2/1~a~~~~h~1/3~~~~e~1/1~~1~e~1~1/1fg~hfdge1/10
10/1~~a~~e~~1/1~~1~~1~~1/1~~~~~~~~1/1~~~~~~~2/1c1bgda~b1/1ehd1chbg1/10
10/1~f~~~h~~1/1~1ca~gb~1/1~fhbcde~1/1e1efbead1/1f~he2d2/1egcgcfce1/10
10/1~b2~~~h1/1~1g1~~ea1/1~dfb~~bg1/1hc1a~~fc1/2d1eb~ah1/1ghdgagf2/10
10/1~1~d1~c~1/1~~~2~1~1/1g~f~~~a~1/2~b~~~1~1/1~gdba~fd1/1gc2ecbe1/10
10/1~~~c~~~~1/1~~~b~~~~1/1~~~e1c~~1/1~~~1~1~~1/1~a~b~~~~1/1d1dae~~~1/10
10/1~ace~g~b1/1~b1d~1~2/1bc1cf1~h1/3~1a~~c1/1gfbdg~db1/1b1c1ebeh1/10
10/1dc~1a~~~1/1e1f~h~~~1/1cfe~1ac~1/2dfdhce~1/2bce1haf1/1hadcabch1/10
10/1~~~~~~1~1/1~f~1~~~~1/1~2~~~~~1/1~~b~~~~~1/1~ch~~1~f1/1~hb~~~ch1/10
10/1~~h1~~~~1/1~~2~~~~1/1~~~~~~~~1/1~~~~~~~~1/1ae1~e~~h1/1f1hf1a~f1/10
10/1~~~1~~~2/1~~~c~~~2/1~~~1~~1~1/1~~a~~~~~1/1a~g~~~f~1/1b~b~f1cg1/10
10/2~dc1~ge1/1~~b1~~1d1/1~~cgh~~c1/1c~1hd~~b1/1bdbfcg~g1/1c1fdbe~d1/10
10/1~~~~~~~c1/1~~~~~~1d1/1~h~d~e~2/1~c~g~1~~1/1~e~cb~hg1/3bge~gh1/10
10/1b~g~d~~~1/1c~f~h~~f1/1g~g~1a~c1/1h~1a1gcb1/1dcgfdhd2/1fdag1aca1/10
10/1b~~~~1~2/1d~~a~~~~1/2~~1~~~~1/1~~~fe1f~1/1~~cb1~h~1/1h~def~ca1/10
10/1f1d~edc~1/1h~e~1c1~1/1c~gd~h1c1/1ahec~f~b1/1b2e~b~2/1debga1~c1/10
10/1gh~b~~~g1/1e1~g1~~a1/1c~b1~~~2/1h~e1~~~d1/1g~1c~ehc1/2~egeda2/10
10/1~h~d1~f~1/1~a~f~~he1/1~1~b~~dc1/1~h~1f~fd1/1ha~fhb1a1/1ahae1ca2/10
10/1~c~~~~~e1/1g1~~~~~d1/1hd~~~~~2/2e~~~~cb1/1hd~~f~ba1/2ch~gfa2/10
10/1d1~~1ca~1/1c1h~~eg~1/1eaf~~1ac1/3bhca1b1/1eahba1ha1/2hgfg1dc1/10
10/2~c3da1/1c~gaf~1h1/1g~1e1~ha1/1f~gfd~bd1/1h~2chag1/1bdfchaeb1/10
10/1~b~~d~b~1/1~d~~a~g~1/1~1~~1~1~1/1~g~~~~af1/1bh~e~~1h1/1hefb~d~e1/10
10/1~~~~~~e2/1~~g~~~h~1/1~1b~~~d~1/1~ac~c1ba1/1db1abfed1/1hfdf1ghb1/10
10/1~~~~c~f2/1~~~~f~be1/1cg~~g~e2/2ad~e~3/1~dh~h~h2/1b2f1~ah1/10
10/1~1~~~~f2/1~1~~~~3/1~~~~b~1~1/1e~e~1~hf1/1d~h~~~dg1/1g~1~1~bd1/10
10/2~~~~~~~1/2~~~~g~~1/1~c~~~f~~1/1~h~~1c~~1/1~1~h~e~~1/1gef1~b~b1/10
10/3fd1~d~1/1~~eb1~1~1/1~~h2ch~1/1e~c~fad~1/2b1~1ca~1/1gha~gdbe1/10
10/1~~a~~~~d1/1~~g~~g~2/1~~1~~1~~1/1~~1~~~~~1/2dh~~~~h1/1dfe~edaf1/10
10/2~~~1~f~1/1~g~g~~h~1/1~a~h~~fb1/1eh~c~~da1/1dabfa~1d1/1e1fcfb1b1/10
10/1~~1gd~1~1/1~ga1f~~~1/1~cg~1gb~1/1dhacedf~1/1gcgh1be~1/1dgfdbhgh1/10
10/1a~~~~adg1/1b~~~~dgb1/1f~~ebhce1/1gb~bc1df1/3~gfbeb1/1~hgc1dgh1/10
10/1~~~~~ebh1/1~~~~edcd1/1a~c~g1ac1/1b~fgd1gd1/1hedch1ca1/1f2gadfd1/10
10/2~h~dbg~1/1~~e~fec~1/1~eab1afh1/1dg2e1gb1/1hbchg2e1/3gebefa1/10
10/1a~~~1~~c1/2~d~~~~2/1h~g~~~~~1/2fe~~~~~1/5fe~~1/1~a~~cdgh1/10
10/1g~~1g~1~1/1d~~fd~~~1/1c~~1c~~~1/2~c1h~be1/1~~h~1~1b1/1~edf~~1c1/10
10/1~c1f~bdg1/1hf~1~2a1/1de~e~~d2/1ah~bhfe2/1ebcdfg3/1fhd1dfha1/10
10/1~~~c1~~2/1~~~1~e~~1/1~h~~~1ef1/1~d~c~hb2/1ag~gfdhd1/1e1bhae1a1/10
10/1fab~~~g~1/1eca~~~b~1/4~d~a~1/1bcedhcbd1/1heh2e1e1/1f1ad~h1g1/10
10/1de~~~~~~1/2bf~~g~~1/2f1~~1d~1/1~b1~~c1~1/1h2h~1~~1/1g1~ce~~~1/10
10/1a~1be~~~1/1e~~1b~e~1/1a~c~1~cd1/1fhdfc~bg1/1hacdb~cd1/1gb1bcbfb1/10
10/1~~~~1~~d1/1~~a~a~~c1/1~bf~1ahf1/1~ge~~1b2/1~2~hgdc1/1~c1fbfce1/10
10/1ba~1a~~~1/1hc~~1e~~1/1ag~a1fda1/1fe~g~cgh1/1ahgc~1ha1/1bcfdhbge1/10
10/1~c~~~~c2/1~1~~~~a~1/1~~~~~hb~1/1~~~~~1d~1/1~h~~dg1~1/1abc~ghca1/10
10/1d~~~~d~~1/2~~~2~~1/1~~g~1~ac1/1~~e~f~1b1/1~e1~df~g1/1bh~~1cah1/10
10/1~~~~bd~~1/1~g~hgc~~1/1~c~da1~f1/1eg~2~~c1/1bdcfh~~2/1ahecf~~a1/10
10/1~~~~~~~d1/1~~~~~~1a1/1~~~~~h1c1/1~d~~~fg2/1ab~~cbeg1/1ef~~b2h1/10
10/1~~~~b~h~1/1~~~~1~1~1/1~~~hg~~~1/1~~~2~~~1/1c~b1~ed~1/1e~a~gdac1/10
10/1~~~1cd~~1/1~~~~e1~~1/1~~~~ab~~1/1~~~h2~b1/1~~~g~~~h1/1~~eagd~c1/10
10/1h~~2~~~1/1a~~~1f~b1/1d~~~~gac1/1h~a~~f1e1/1a~f~~d~a1/1c~e~bg~c1/10
10/1~be~g~~2/1~fb~1~1~1/1~1g~h~~~1/1~c1~1~e~1/1~f~a~~1d1/1a1dh~~1c1/10
10/1ed~~~~~~1/3~~~~~~1/1d~~~~~~~1/1h~gb~~~~1/1dfhdge~~1/2a2afbe1/10
10/1~hc~be~~1/1dfd~1d~h1/1a1e~1f~a1/2~f~gheb1/1a~g~b4/1bed~dgfc1/10
10/1~fad~1h~1/1~afb~~a~1/1~fg1~ed~1/1c1de~ahf1/2aha~g1c1/1bdg1hchg1/10
10/3~~~~~~1/1~b~~~~~2/1~e~~~~3/1~1~1~c~~1/1~~2ea~h1/1~~h~1cab1/10
10/2~~~a~~~1/1~~~~1~~e1/1cg~~1~~2/3~~~~~~1/1~g1~~a~~1/2ca~g1~e1/10
10/1~~1~b~ba1/1b~~e1~af1/2~~1h~3/1e~gbe~~e1/1dcbf1c~d1/2hfgf1ha1/10
10/1~~~~~1~2/1bd~~~~~~1/1fg~c~~b~1/1b1~1~~c~1/1fg~1ecdc1/1be~fdb1g1/10
10/1~2b~~1~1/1~~g1~dg~1/1g~2~edh1/1a~fgfagb1/2~cahdcg1/1ecacghbc1/10
10/1~~2~~~~1/1~~h~~~~~1/1~~e~~~1~1/1~g1~~~~f1/1gef~~~~d1/1a1cac~dh1/10
10/1~~~f~~~d1/1~~~ch~~b1/1~a1ge~ca1/1agc1gcfd1/1ed1efh1b1/1ca1bc2c1/10
10/1~g~~a~a~1/1~e~~1~1~1/1~1~~~1fe1/1~~~g~~a2/1~~~1~~c~1/1f~cd~~da1/10
10/1f~~~1~~g1/1a~~~~~~a1/2~~~eh~d1/1e~~~bg~2/1dh~had~~1/1bfa2ad~1/10
10/1~~~~~~df1/1~~~~ca3/1e~~2h~h1/3~a~1~b1/1~1~hgfc2/1hdbgehb2/10
10/1~~hbg~~~1/1~~a2~~~1/1~gbdc~gc1/1cd2a~be1/1d1hgcafh1/1bhfadbae1/10
10/1~f~1g~g~1/1~1~~1~1~1/1~~~~~1~~1/1~~~~~d~2/1h~1~~1~~1/1f~~~~dh~1/10
10/1~~1~e~~~1/1d~1~c~~~1/1e~~~1~~g1/2~~~~1~h1/1~~~~~~~g1/1~cd1~h~2/10
10/1a2~~hg~1/1cfcg~fc~1/1fe1a~ag~1/2d2~hcd1/1~f2~ebf1/1~abfab1c1/10
10/1~cadbfb~1/1~hbh2d~1/1~ed1dfbc1/1~1gdegad1/1fe1bh2e1/2heg1ghd1/10
10/1~g1~~dc~1/1~b~~~cha1/1~1~~~2d1/1~~~~~1~2/1gc~~a~fh1/1hbe1bfge1/10
10/1~2~~~~2/1~d~~~~~~1/1~1~~~~~~1/1g~~~~~~~1/1a~f1~g~~1/1b~daf1~b1/10
10/1~~~~2~~1/1~~1~1bfd1/1~~~~~fe2/1~~~~e1h~1/1b~~~g~1~1/1da~gfah~1/10
10/1~d~~~e~~1/3~~gh~~1/1~~~~1c~~1/1~~~~~bd~1/1h~ab~1a~1/1ecde~dhg1/10
10/1~~ag~~~~1/2~1f~~g~1/1~~dh~bh~1/1~~2bag~1/1hfc~ad1~1/1g1gcgab~1/10
10/1ad~ag~~2/2b~ef~~d1/1~e~2f~2/1~h~1~c~b1/1~eghdb~d1/1h1hdc1ce1/10
10/2~~e~~~~1/1~~~c~~b~1/1~~~1~~e~1/1hg1~~c1b1/1f1~~~a~2/1ag~b1h~f1/10
10/1~~~b1g~2/1~~~1d1~e1/1f~~~g~~c1/1g~~~1f~b1/1f~~~aec2/1hd~g2ah1/10
10/2~b~~~1~1/1~~1~d~~~1/1~~~~f~~~1/1c~1~a~~~1/2g1~dc~~1/1~fbgaf~g1/10
10/1~1b~~a~~1/1~b2~1~g1/1~1e~~~~f1/1~~h~~~~2/1~~e~b~~~1/1~h2a~gf1/10
10/1~~~ha~1~1/1~~~1g~~~1/1~~~~1~~2/1~~~~~1~2/1~~~~~g~f1/1efa~~h~e1/10
10/1~eg~c~~h1/1~2~g~ba1/1gae~h~a2/1fgh~dcb2/1c1b~a1fd1/2cdh1bhb1/10
10/1~~~~~1~~1/1~~~1~~~c1/1b~h1~~~2/1fbf1c~e~1/1b2f1afg1/1fgagecha1/10
10/1~~c1a1~d1/1~~1hd~~a1/1~~2f~~2/1~~~d1~~f1/1~ah1de~2/2dcfef~f1/10
10/1~a~d~~3/1d1~g~~~~1/1hd~b~~~~1/1fe~h~~c~1/1cg~b~~f~1/1bh~h1bae1/10
10/1g~~~1~h~1/2~~a1~1~1/1~~cb~he~1/2~1h~f1~1/1~efcbe~2/1hae1gcgc1/10
10/1~ahb~~d~1/1~1fh~~g~1/1~~1de~c~1/1~~~fc~a~1/1~ec1b2g1/1acgagcfd1/10
10/1d~~a~e~~1/1f~~h~1~~1/2~~ad~~~1/2b~1eh~~1/1debghd~h1/1cgfcef~2/10
10/1~~f~~~~b1/1c~1~~~~a1/2~~~~~~f1/1~~h~g~~2/1d~dg1~a2/1he1fcebe1/10
10/1e1gf~g1~1/1dbfd~1b~1/2eab~~f~1/1h3f~1~1/1fdcdgdh~1/1bgbcfbga1/10
10/1~~~~~g~2/1~~~g~1~~1/1~f~c~~h~1/1~abeb~d~1/1fg1dh~hg1/1gdghca1e1/10
10/1~d~a1~b~1/1~1~d~~1~1/1c~~f~~1~1/1f~~1~~~e1/2e~c~~~2/1eaf1gbge1/10
10/1~~1~~~~~1/1~~g~~~~~1/1f~1~~~d~1/2~~~~~1~1/2~c~~1a~1/1a~1~gcdf1/10
10/1~~1~1~~c1/1~~1~1~3/1~~~~e~ag1/1~~~~baf2/1~h~efg1b1/3~cachg1/10
10/2~~~~a1~1/1~~~1~2~1/1~~~~~~g~1/1g~~~~~1~1/1f~~~a~a~1/1ae1~gfef1/10
10/1~~ch~f~2/1~b2~e~~1/1~dae~a~~1/1de2~gh~1/1cf~gbaf~1/1agfacg1~1/10
10/1~e1~~c1~1/1~ge~~fg~1/1~2~a1c~1/1~ac~e1h~1/1b1gdb1ad1/1dgbeh1fe1/10
10/1~1~~~1~~1/1~e~d~g~2/1f1~g~a~~1/1e~~d~1hb1/1b~~c1~1e1/1c1~1fa~h1/10
10/1~~~~~1~~1/1~~~~~~e~1/1~~~~~~3/1~~~h~~~~1/1~f~1~~~h1/1e1~~~~f2/10
10/1~~~~beg~1/1~e~~2f~1/1~d~~~~1~1/1~1~~~~~~1/1~~~~cd~~1/1h~chfg~b1/10
10/1~1~1~~~~1/1d~~~e~~~1/2~~~a~~c1/1f~~~g~f2/1h~~~1~a2/1g~c~e~dh1/10
10/2~~~~~~~1/1~f~~~g~~1/1~gh~~c~~1/1~1b~da~~1/1db1~hb~~1/1bchad1hf1/10
10/1a~~bg~3/1eh~f1~1~1/2d~1h~~~1/1de~bdce~1/1b1~ceag~1/1dfbe2e~1/10
10/1~1~c~~~~1/1~a~h~f~~1/1ac~1~1b~1/1eg~~age~1/2e~dfbhd1/1ac~ghcbf1/10
10/1~~~~~cg~1/1~~~~~1ch1/1~~a~h~1b1/1~f1~g~~e1/1~b~gc~a2/1e1~fg~gb1/10
10/1~h~g~~~~1/1~1~f~1~~1/1~~1h~~~~1/1~~2~~~~1/2eg~~~~e1/1cgcfgb~b1/10
10/1~~~~e~ag1/1~1~~1~3/1h~d~~~e~1/2hg~~2f1/1d2~c~~2/1facbaebh1/10
10/1~~~1b~1~1/1~~~~e~b~1/1~~~d1~1~1/1~~~1~~c~1/1~~de~~b~1/1~fcf~~ec1/10
10/1~ch1~h~d1/1~ac1db~f1/1~2~hf~2/1d~ghfe~f1/1c~deahfb1/1ahbhbgce1/10
10/1~~~1c~~~1/1a~a~hg~~1/1h2~f1~~1/1gf~~1c~~1/3~egb~~1/1hb~hfebg1/10
10/1~~~~~~1~1/1~~h~~~~~1/1~~e~g~a~1/1~c1~1~b~1/1~h~~bfe~1/1hecbfa1g1/10
10/2~~~g~~~1/1~~~~a~~h1/1c~1~1~~a1/1b~~~~~af1/1f~c~~g3/1a~fe~beh1/10
10/2~b~2~~1/1~~1c~~~~1/1a~~1d~~~1/2d~1a~~~1/2bc~1~eb1/1~ceah~ha1/10
10/1hb~~~~~~1/1g1~ac~~~1/1h~~2a~~1/1f~~~~1~~1/2~~1~b~~1/1dfgc~1d~1/10
10/1gfdb~g~~1/4h~1~~1/1~c~1~~~e1/1h1g~~~~2/2~fde~a~1/1ahcegbdg1/10
10/1~~~~~~~~1/1~~~~~~~~1/1a~~~~h~c1/1gf~~~1~2/3~1f~~2/1~e~hcage1/10
10/1~~1~1~3/1~e~~h~~~1/1~b~~c~db1/1~fh~1~ch1/1d1a~~~ha1/1e1ef~eac1/10
10/1~1b~~~~~1/1~~e~~~~~1/1~~1~~~~c1/1~~~g~~~2/1~~b1~~~~1/1~~e~1c~g1/10
10/1~fh1d~~~1/1~eg~c~~~1/1~a1~1~~~1/1~g~h~b~~1/1b1~1ae~~1/1gcgae1df1/10
10/1~c~fg~~~1/1c1~2~~~1/2~~~~~~f1/1c~~c~a~g1/1d~cd~h~c1/1c~dhcfaf1/10
10/1~d1~1~~~1/1~h~~~~~f1/1~1~ad~ah1/1cagcb~db1/3caf~f2/1~gh2fga1/10
10/1f~~1~~~2/2~~f~a~~1/1~~~h~1~~1/1~~b1bd~~1/1e~f~3~1/2db~e1ha1/10
10/1~~a~~~d~1/1~~1h~~bd1/1~~1e~~f2/1a~fh~~1g1/2~ca~~cf1/2gfbe~gb1/10
10/1~~c~h~cb1/1~~f~g~1g1/1~~1~fc~a1/1~fb~hfcb1/1~gedfbh2/1ad1ebfeb1/10
10/1~1~~~~1~1/1~1~~~c~~1/1~d~~~1~~1/1~1~~~g1~1/1~a~f~1df1/1cef1ge1a1/10
10/2~c~~e~~1/1~~1~~1~~1/1~~~~~~~~1/1ae~dh~b~1/1ef~cgfdf1/1cg~1hgab1/10
10/1~~g~~e3/1~~1~~dbd1/1~~~~~1d2/1~f~~1eg~1/2h~~~cd~1/1bagcaf1h1/10
10/1~~~h~~~2/1~~~1~1~~1/1~~~~~e~g1/1~~~~~a~a1/1~~e~cd~g1/1~ecd1h~2/10
10/1~~dg1h3/1g~bdaca~1/1b~1ce1ce1/1a~2c~1h1/1h~hfd~hd1/1d~fbchb2/10
10/1gh~~~~~~1/3~~~f~a1/2~~~~e~2/2~~cbd~h1/1~g~e1ede1/1ehgfcbha1/10
10/1a~~~~1f~1/1e~~~c~g~1/1d~1be~1~1/2~~1a~~~1/1~d~~1~1f1/1~ac~d~bg1/10
10/2~~~~1~~1/1~~~~~~~~1/1dgf~~~~~1/1b1d~~~~h1/2eb~b~~g1/3h~fedf1/10
10/1cbe~f~1~1/1h1d~c~~~1/2cb~d~c~1/1afec1cag1/1gh1hfdfc1/2bea1gcg1/10
10/1h~~~~~1~1/1a~~~~~1~1/2~~~~~~a1/1b~~~gh~b1/2~~~1g~2/1~d~fdb~f1/10
10/1~1~f~~~~1/1~~~c~~c2/2~2~d1c1/1e~b~gh~d1/1g~d~e1~e1/1f~bebcdh1/10
10/1~~d~~~~~1/1~~1~h~~~1/1~1~~f~~~1/1~d~bc~~~1/1~1~g2gf1/1~hbcdf1h1/10
10/2~~~~1~~1/2~e~~~~d1/1~~c~~~~b1/1f~1h~~~f1/1e~bd~a~g1/1cgc1ahc2/10
10/1~1~bd~~~1/1~af2~~~1/1~1cg~~f~1/1~1b1~~d~1/1~~hc~~ca1/1d~2~dhg1/10
10/1~~2f~~~1/1~1c~d~a~1/1~~1~b~c~1/1~~a~1~1~1/1~f1~1~c~1/1fadb~~ac1/10
10/2g~~db~e1/3~~fg~2/1~~~~2e~1/1a~~~~1fb1/1f~c~~h1h1/1gfafcd~g1/10
10/1~~~~~~1c1/1~~b~~~~a1/1~~1~~~~2/1~eb~~g~2/1fdc~~d~~1/1gfb~gae~1/10
10/1~gh~1~~h1/1~h1~ab~f1/1h1~~b1e2/1cg~~3a1/1bh~f~gcd1/1db~e~f1h1/10
10/1c~~~f1g~1/1db~~1~e~1/2e~~f~a~1/1~a~~a~b~1/1ad~behe~1/1egeacf1h1/10
10/1ga~~~f~~1/3~~~g1~1/1~~~~~1g~1/1~~~~~1ah1/1b~b~~fgc1/2~a~cg1h1/10
10/1~~ceadfb1/1~~1bf1d2/1~~fce~bg1/1~g1dh~1c1/1cbc2~g2/1adhad~cf1/10
10/1~d~e~d~~1/1~1~1~1~~1/1~~~~a1~~1/1~~~a1~f~1/1~~gedag~1/1~~hfe2h1/10
10/1~bf1~~~g1/1~fc~~~~2/1~1a1~~~~1/1af1e~df~1/1c1gc~hgh1/1e~d1b1eg1/10
10/1~~~e~~~2/1~~~1~g~~1/1~~~~~d1~1/1~~~~~1~~1/1h~c~e~h~1/1b~b~d~cg1/10
10/2~ag1a1~1/1~bc1~b1f1/1~e1b~h~h1/1da~1~b~a1/1hg~hf1~c1/2edcgagd1/10
10/1~~~~h1~~1/1~~~1d1d~1/1~g~~1~e~1/1a1~~~eg~1/1bd~hd1ef1/2ed1bf1a1/10
10/1~2~~~~2/1d~~~~~~b1/1c~f~~~e2/2~d~~~ag1/2~a~c~h2/1h~1eb~fg1/10
10/2f~~e1~a1/1agc~h~~f1/1hdh~a~~b1/3egc~hd1/1f~1b1~c2/1achgagfa1/10
10/1~2~1~gb1/1~1a~~~1d1/1~cfa~~~g1/1bededhc2/1acfdgcfh1/2a1gdada1/10
10/1h~~~~1~~1/1e~~~~~~~1/2~~~c~~~1/1~~~~bd~~1/1~1~~1ac~1/1~d~abhe~1/10
10/1~1~~b~~c1/1~~~~1~~2/1g~g~~~~~1/1e~1e~~~~1/1dh~dh~d~1/1h1hb2c~1/10
10/1~e1c~~~~1/1ch1f~~~~1/1f2b~gc~1/1g~a1~he~1/1abec~gd~1/1cg1dgcae1/10
10/1~~df~~~a1/1g~2~~~h1/1f~~a~a~f1/1d~~c~d~c1/1hcb1~1cb1/1cbc~gch2/10
10/1~1~b~1~e1/1f1~1c~~2/1g~g~b~~b1/1b~1~c~~h1/1gehea~~f1/1cbg1bgac1/10
10/1e~1~~~1~1/1h~~~h~~~1/2~~~1~~~1/1~~a~~f~~1/1~ed~da~~1/1cg1~1gfc1/10
10/1~~~~~g1e1/1c~~~~b1a1/2~~~~1~e1/1bg~e~fa2/1dca1bdce1/1f1ea1e1b1/10
10/1~b~~~c~2/1~1~~~f~2/1~1~~~g~~1/1~~~d~de~1/1b~~e2ae1/1ghfhcagh1/10
10/2~d~~1~2/1~~f1~c~h1/1~~1~~a~e1/1~~b1~1~c1/1d~1a~e~g1/1ha~bfg~b1/10
10/1g~c1~dg2/2~f1~h3/1~~c~~g~e1/1h~f~~e~a1/1f~babdgf1/1daecafed1/10
10/1dg~~~h~~1/1bc1a~1~f1/3~e~~~c1/1~1~1~~a2/1h1~~~~c~1/1ged~b~f~1/10
10/1~ed~~~b2/1~d1hg~1~1/1~b2h~1~1/2h~~c~~~1/1~1c~1~~~1/1f~hgfe~~1/10
10/2~~1b~d~1/1~~~b1~ca1/1~~~df~1d1/1~~~f1efh1/1~~~d~cda1/1eg~h~g1d1/10
10/1~e~~2~~1/1~f~~~~~~1/1~ed~~~~~1/4~~~~~1/1d~~g1~~f1/2ea1~g~a1/10
10/2~~d~~~2/1g~h1~a~b1/2~1~~g~h1/1e~~h~h~2/2~~eb1dc1/1df1dfacg1/10
10/1~d~1~a~~1/1~1~~~eac1/1~~~~~age1/1~~~g~1e2/1d~h1~~f~1/2h1ehcef1/10
10/2~~~~~~b1/1~~~~~d~d1/1~~c~~1~2/1~~1a~e~g1/1~~~de1bc1/1gf~f1ae2/10
10/1f~~~~~~2/1bg~~~~~a1/1e1gf~~~h1/1dehgd~ca1/1bca1hfaf1/1e1ecdbec1/10
10/1b1~~a~~2/1g~~ae~~e1/2~~2~~h1/1g~a~f~~b1/2hceg~h2/1bghchcef1/10
10/1~~g~~~db1/1~~1~~~a2/1e~1~becf1/1bdbfeha2/1ga1gfafh1/1fcfdgfhg1/10
10/1~~c~~~e2/1~df~~~bg1/1~ec~~~af1/2cg~h~h2/1~g1bf~bf1/1~degeafb1/10
10/1~~~1~~~~1/1~~~~1~~~1/1~~~~~~~~1/1~~~~f~e~1/2b~~e~f~1/1hdh~1db~1/10
10/1~~d3~~1/1~~e~~b~~1/1ae1~~f~c1/1hd~b~ghd1/1a1fgh1c2/1d1gcg~b2/10
10/1h~3h~~1/2~~b~a~~1/1~~~1~1~d1/1~~b~f~~c1/1d~1a1~af1/1gbcb~~g2/10
10/1~ba~~~d~1/1~1c~~~1~1/1~f1e~cb~1/1~gb1~h1f1/1hah1egdb1/1f1eabagf1/10
10/3c~~~~~1/1g~1~~~~~1/2~1~~~~~1/1~~g~~~f~1/1~~1~~~e~1/1~~h~chfe1/10
10/1~~~~~~~~1/1~~~~~~~~1/1~1~~1~d~1/1~~~~g~1~1/1~~~hac1g1/1edechead1/10
10/1~~~gd~g2/1~~~eb~da1/1~ehf1ced1/1hcfgheca1/2dg1cg3/1bgeg1dea1/10
10/2~~~~1~2/1~~~~ge~~1/1~~f~cfb~1/1~~b~fda~1/1~~h~e1e~1/1hdacgf1d1/10
10/1~1g~~1gc1/1~2d~~h2/1~~ab~h3/1ab1e~agb1/2agacbfe1/1befgfdbf1/10
10/1~~~~~~~~1/1~~~~~~~b1/1~h2~~~2/1f2~~~~~1/2b~~~~a~1/1dhfd~~ba1/10
10/1~~c~1~~~1/1~f1~~~~~1/1~a1~~~~~1/1~b~g~hdc1/3ed~aeg1/1adbchcdf1/10
10/1~b~~~a~2/1~gbg~1~d1/1~fc1~b~c1/1e1fb~d~b1/1chdheca2/1gc1e1ef2/10
10/1bf~~~da~1/3~~~1c~1/1~~~~~~1g1/1~~~b~gd2/1~~~1~c1e1/2efc~dag1/10
10/1~~~h~d~~1/1d~a1~f~~1/2df~g1~~1/1~2~f1~e1/1~he~c1~a1/1~dgd1chg1/10
10/1~1~1f~ah1/1~~gfb~de1/1b~def~1f1/1c~f1cg~a1/1a~c~fb~b1/1h~bacg~2/10
10/1~~1h~b~c1/1~b~1~1~2/1~c~1~gea1/1~e~fbdfc1/1hdcgcabd1/1d1gbdgch1/10
10/1~1g~h~~~1/1~hc~g~gd1/1dfd~a~db1/2b1hf~ge1/1ca~fcfhb1/1fhea1cad1/10
10/1~1~~c~~~1/1~e~~e~~f1/1cg~ea~~b1/4h1~af1/1bafa1~3/1ae1ehgfc1/10
10/2b~~a1b2/1~1~~f~ch1/1~~e~1~df1/1c~b~h~1d1/2fd~f~~e1/3gfdga2/10
10/1~h~1h~~~1/3~~1~~~1/1~~~fb~~~1/1~~bcf~~~1/1~c1e1a~~1/2a~1ehb~1/10
10/1~d~~~~~a1/1~b~~g~~g1/1~a~~a~~2/1~eb~1b~e1/1h1gcfacg1/1c1cahcfd1/10
10/1~~1~1b~d1/1~~~~~f~2/1~~b~~e~a1/1be1~~a1c1/1cdfghghg1/1dcef2cf1/10
10/1ae~~~~~e1/1gh~a~h~c1/1db~g~a~2/1hg~d~hd2/2afefba2/1bdegcdgb1/10
10/1f~~~~1~~1/1a~~~~f~a1/1g~~~~1d2/1e~~~1~1~1/1d~2~~~~1/1e~h~~~hg1/10
10/1~a~~~~~2/1~2~~~~2/1~1~ed~~~1/1~~gcf~~d1/2~1gc~~2/1fh2hae~1/10
10/2~~2~f~1/1~~~~~~1~1/1~1~~1~~2/1c~~~~~~~1/1b~~~~~~d1/1dhfb~h1c1/10
10/1e~~~c~h~1/1c~g~e~d~1/1b~d1a~1~1/2fg~1~h~1/1~1acafe~1/1~bebehfe1/10
10/1~~~g~~~~1/1~~~1~~~~1/1~f~f~~~~1/1~e~1~~~~1/1~1he1~~~1/1~c1hc1g~1/10
10/2~~~~~~~1/2~e~h~~~1/1~da~e~~~1/1~fg~cb~~1/1~gf~1c~h1/1bf1~cdga1/10
10/2~2~g~~1/1~~~ef1~~1/1~~~aha~~1/1~~~1cb~~1/1fdagfc~d1/1hbeb1adf1/10
10/1~~h~1~~2/1e~de~~~a1/1b~g1~~gb1/1eb1ch~bg1/1agfgd~ac1/2defhgbe1/10
10/1ac~~g~~b1/3~~1~b2/1~~d~~cg~1/1e~g1~dfe1/2~acgf1h1/1cg2h1~f1/10
10/1~d~~f~3/1~e~~e~bd1/1bd~~f~3/1c1b~dh~~1/2g1cgc~2/2bdbhe~g1/10
10/1~1~~~1df1/1d~~~~1ab1/1a~~e~hfa1/1d~~h~fd2/1bd~g~c1e1/1c1gdbdbc1/10
10/1c~g~~1~~1/2~d~~~~~1/2~b~~~~~1/1~gfh~~1~1/1~dab~h1c1/1fa1d~d1d1/10
10/2b~~~~1~1/1~1dh~~e~1/1~~ea~d1g1/1~~1f1aeb1/1~~e1ce1e1/1af1cbh~g1/10
10/1eh~1h~~2/1fb~d1~~a1/1gfb1~~~e1/3a~ad~2/1ghfh1egc1/1acbf1b1h1/10
10/1~a1ce1~f1/1~fca2~a1/1~cg1g~~f1/1eg3h~2/1abhaca~e1/1badbae~d1/10
10/1f~f~~a~~1/2~1~bd~~1/1~~~cgh~f1/1fb~dea~e1/1h1ehd1ag1/1f1cfc~fc1/10
10/1c~~~~~~~1/1d~~e1h~~1/2~ba~d~~1/1~~1b~1g~1/1c~~1~1a~1/2bfbhgef1/10
10/1fa~~d~~~1/3~~h~~a1/1c~~g1h~e1/1ebabcdgc1/1fdcf1ecd1/1ecbahcf2/10
10/1~~~~cb~~1/1~~edb1~~1/1f~1ah1d~1/1e~1c1eh~1/1afabgb1b1/2a1gb1ea1/10
10/1~~cgb~ha1/1~~hfd~g2/1hcbh1~1b1/1geg1~d~g1/1hf1a~hef1/1gbcf~dcd1/10
10/1~e~~~a~c1/1ag~~~1~2/1h1~~~~~~1/2~e~~fgf1/2e1ebhca1/1ehegecbh1/10
10/1a~~~~~~~1/1g~~d1a~~1/2~1gc1~~1/1~~~3~~1/1~~~~~~~~1/1~~~ch~dh1/10
10/1~g~e~1~~1/1~1~bf~~2/1~~~1a~b~1/1~~~~g1d~1/1~e~~1~ed1/1~1f~eg1a1/10
10/1~~~~e~d~1/1f1~~1~1~1/2~~~~~~~1/1~~d~~~~2/1~~1~~~~~1/1~hefh~~~1/10
10/1~a~1~d~~1/1~1~1bh~~1/1~~~~a1~~1/1~~b~deg~1/1fahgf1b~1/1gh1hbgeg1/10
10/1~e1~cg1g1/1~c~~d1~f1/1g1c~1g~d1/2hd~~b~c1/1~e1cbf~d1/1ag1hdeaf1/10
10/1~1~~e1~~1/1~~~~fhb~1/1~~~~2a~1/1~~~~~~bc1/1~a~df1he1/1d1c1g~1g1/10
10/1~1~~c~g~1/1b~~~1~c~1/2~d~~~1~1/1~~h~dh~~1/1hbc~bed~1/1g1fgebfg1/10
10/1~bg~~cgd1/1~hfe~eb2/1~bad~c3/1~hdhea~a1/1f1eage~b1/1b2chdbe1/10
10/1e~~1~~~~1/1c~~hgd~~1/2b~2fa~1/2h~cb2~1/1dfdgadc~1/2dhehbhg1/10
10/1~1~1~~~b1/1~f~~a~~2/1b1~~1~~~1/1e~~~~~cf1/2c~~~~e2/1~e~~~~a2/10
10/1~~h~c~~~1/1~~1~g~~~1/1~~b~a~~~1/1~~1d1~~~1/1~f~hfb~~1/1~agcd1ah1/10
10/1~1~~e1de1/1g~~~b~a2/1c~~ce~1~1/1a~~2~d~1/1e~~cg~b~1/2fge1fa~1/10
10/1e~~~~b~b1/1f~~d~1~f1/2~~f1~a2/1~~~1~~b~1/1dga1cg1~1/1e2cea~b1/10
10/1~~~~~~c~1/1~~~b~~d~1/1~1~1~~1~1/1~~~1~~~2/1fc~~f~~2/1a1b~eade1/10
10/1~1a~hcd~1/1b~b~ef1~1/1hge~fg~~1/1fcg~2~~1/1ah1bg~~~1/1ceh1ched1/10
10/1~ah~1~~~1/1~1fcg~~~1/1h~hb1~h~1/1db1f1~1g1/1fh~af~ge1/1hcd1deda1/10
10/1~g~~~~b~1/1~f~~~~1~1/1~1~~~h~~1/1~~~~~1e~1/1~~~d~1hb1/1g~~fd~eg1/10
10/1~c1~d~c~1/1~1~~e~1~1/1~h~~f~~~1/1~1~~2dg1/1e1c~ag1a1/1bcfhb1bg1/10
10/2~f~~~~~1/1a~1~~~d~1/2~b~a~h~1/1~h1~1~1~1/1~e~~~ed~1/1cgfb~gbc1/10
10/1~~1~~1a~1/1b~~~~~d~1/2~~~g~e~1/1~~~~d~1~1/1c~~~g~~b1/1h~~abhce1/10
10/1~~a~~~h~1/1~~de~~g~1/1c~g1d~1~1/2e1~g~~~1/1~de~a~g~1/1bchb1~ed1/10
10/1~c~g~~~~1/1~d~e~~~b1/1~1~b~~~c1/1~~~1d~~2/1~~~2~cg1/1~h~ebegh1/10
10/1~~b~~e~f1/1~~e~~1~g1/1h~b~~c~a1/1c~1g~1b2/1h~~1aedc1/1d~~c2af1/10
10/1c~b~~f~f1/1a~1~~1~2/1b~~~~~~2/2a~~~~~b1/1fec~d~~e1/2cdc1~bc1/10
10/1e~a1~1~h1/2gd~gc~e1/1~b1edf~d1/1fd~ca1~2/1a1~fb~~~1/2bhea~c~1/10
10/1~~~~~~cf1/1~~dfh~3/1~~b1g1~~1/2c1~e~1~1/1~a~~b~~~1/1~deag~~h1/10
10/1~~gc~~~~1/1~~1h~~c~1/1~~~f~2~1/1~~~e~~~~1/1~~fb~dge1/1bad1dhah1/10
10/1gf1d~d~2/2h~1~g~~1/1~1~b~1~~1/1~g~1h~~~1/1~e~~a~fb1/1eb~dbgba1/10
10/1~1a~~~dc1/1~~b~~~3/1~h1~~~c2/1g1~~~~1~1/1fg~b~dbf1/1ae~e~b1h1/10
10/1d~1~~~~~1/2~~~~~h2/1~b~c~~1~1/1~1~1~~~~1/1~~ha~cb~1/1d~2~eae1/10
10/1~fe~~~~c1/1~d1~~a~b1/1~c~d~h~a1/1~1~f~gc2/1ghac1cbd1/2dcg~eca1/10
10/1~e1~~g1~1/1~1f~~ba~1/1e1d~deh~1/1c~ha1cf~1/1h~bgdh1~1/1edhbhb1d1/10
10/1f~hec~~2/1e~ah1~~b1/1afhehdae1/2g1fabf2/1dcec1fc2/1b1b1hbge1/10
10/1~~~~f~~~1/1~~~~d~~~1/1e~d~e~~~1/2~a~a~~~1/1~~1~1bgb1/1~~gh2hf1/10
10/1~~1~~~d~1/1~~1~~fh~1/1~~1~~he~1/1~~h~ag1~1/1~bfhd1fd1/1cfhcbeag1/10
10/1~~~~1~1~1/1e~~h1~h~1/2~~f~~e~1/1~~~1~~1~1/1~~~~~~~~1/1~e~fa~a~1/10
10/2~~~~ha~1/1e~~~~1c~1/2~~~~2~1/2~gf~g1~1/2~fb~ac~1/1ce1ebehc1/10
10/1~~d1~~~~1/1~ab~~b~~1/1~f1~~g~~1/1~ga~~bc2/1~feg2d~1/1~ecfbf1~1/10
10/1~~1a~~~g1/1~~dc~~~2/1~~cd~~~h1/1~h2e~~g1/1~1~bc~1e1/1~a~a1~eb1/10
10/1f~~h~d~2/1d~~1~a~g1/1c~b1e1d2/1a~h1c~be1/1f~d2dcg1/1c~hgbf1d1/10
10/1~1a1cb~~1/1~~gb1c~~1/1h~fc1g~~1/1b~adgec~1/1fadbabae1/1gce1deha1/10
10/1~1~2~~~1/1~d~~c~~h1/1~g~2c~d1/1~fc2b~b1/1~defcg~a1/1heacad3/10
10/1~~~~~~g2/1d~~~~1fe1/2~~~~~1h1/1~h~~e~~a1/1h1~~fc~2/1gc~~gdfa1/10
10/2c~~a~~d1/1~e~~d~~2/1~1~gc~bh1/1~~ge1~3/1~db1d~hc1/1d2defaf1/10
10/1~2~~~~~1/1~1~a~~~~1/1~f~c~~~~1/1~1f1~c~~1/1gb1c~b~~1/2dg2cda1/10
10/1cf1~b~~~1/1fe1bg~~~1/1h1~2~a~1/1d~b~~g1~1/1agdh~1~e1/2dh1cebg1/10
10/2~~b1~1c1/1~~bf~~~f1/1~~cg~ah2/1~~df~fd2/1g~fg~ga~1/1cd1e~ehf1/10
10/2~1e~2~1/2~~1~~~~1/1e~c1~~~g1/2~e1~~~a1/1~~a~g~~b1/1hedc1bdh1/10
10/1~~~~~~1~1/1~~~~~~d~1/1~c~~~~c~1/1fd~bf~bh1/1cb~ha~1g1/1e1eagcge1/10
10/1~h1~1~~~1/1~1~~~~~2/1b~d~~~~~1/1h~1~~~1~1/1e~e~~~~d1/1hdge~b~g1/10
10/1~~~~~~~~1/1~~~~~~b~1/1h~~d~~1~1/1e~~b~c~~1/1a~~1~ad~1/1h~c~de1a1/10
10/1fc~~~1~~1/1he~~~1~~1/3~b~~~~1/1fcae~c~h1/1bebc~hde1/1dg1gheac1/10
10/1c~~~a~~2/1d~~fd~eb1/1b~dg1~c2/1h~aeghg2/1b~h2cf~1/1hfbg1b1g1/10
10/2~h~~~~~1/1c~1~~d~~1/1ac~~a1~~1/2fba1ae~1/1ghgcgbg~1/1aedfcha~1/10
10/1~aebdc~~1/1~b1gh1~~1/1~g~2f~f1/1af~g~e~c1/1fc~dfb~h1/1chbfegbf1/10
10/1~~~~~~~~1/1~~~c~~~~1/1~~~1~~f~1/1~~~1~~3/1~~~~he~~1/1~ef~ch~~1/10
10/2~~~~~gd1/1c~~~f~ba1/2~~ch~fc1/1d~~gaeh2/1f~~a2fb1/1c~hede3/10
10/1~1~~~~~2/1~a~~~1~e1/1~1c1~g~h1/1~a1e~1~b1/1~c2~fge1/1~h~~~bf2/10
10/1d~~~e~ab1/2~~~h~3/1e~~~c~~2/1hb~~1~he1/1facg~~cg1/1ghgehfgd1/10
10/1a~eb~~~2/2~caf~~~1/1~~bgh~~~1/1~b2c~ac1/1bfhdagbg1/1habaehda1/10
10/1~~f~~~1~1/1b~c~~~1~1/1g2~~~1~1/1h1~~~~a~1/1dg~~~cd~1/1af~~dbh~1/10
10/2~~~g~~~1/1~g~~1~~h1/1~1e~~~1e1/1~~1~a~~2/1~~d~be~2/1bda~ehdb1/10
10/1~a~~ah~~1/1~g~~2~2/1~1~f1f~2/1~h~1~1~~1/1gbc~c~~~1/1bed~1d~e1/10
10/1~1gaedc~1/1~h1efaf~1/1~ab3c~1/1~1g~db1~1/1g~e~1gaf1/1fhaf1aeg1/10
10/1~~~g~~c~1/1~c~b~~d~1/1~f~1~~c~1/1~he~~~1~1/1~ed~~edf1/1h2gcghb1/10
10/1he~~~a~~1/1b1b~~1~~1/1e~d~g~~~1/1c~1~h~~~1/1fg~fa~~~1/2cd2~~a1/10
10/1~~~~~a~~1/1~~~~~1~~1/1~~~~~c~~1/1b~gh~b~e1/1c~fg~1~c1/1b~ea~1hf1/10
10/2~~g1~1~1/1~h~b~~~~1/1~a~f~~~~1/1~bh1~~~~1/1~hghdefe1/1dc3ahc1/10
10/1ch~~~~1~1/3~~~~c~1/1c~~a~fda1/1b~~h~bac1/1hgcbehda1/1dcehgfh2/10
10/1~~d~a1~~1/1~~1~1~~~1/1~~h~~~~f1/1~h1~1~~d1/1~g1~1c~2/1cbfb~a~g1/10
10/1~~~~~~h~1/1~~~c~g1~1/1f~~f~a~2/2~~g~f1a1/1e~~b~ehc1/1d~~d~d1b1/10
10/1~~1~~~~~1/1~~~~~~~~1/1~~~~~~f2/1b~h~~~1c1/2~a~b~ha1/1bcfg1ege1/10
10/1~~g~~g~~1/1~dh~~1~~1/1c2~~2a1/1bch~~~bf1/1c1e1~dea1/2ef~g1f2/10
10/3~~~~~~1/1~~~~~~ea1/1~~~1~~d2/1~~~~~~1~1/1~h~1~h~e1/1~dae2~2/10
10/1b~~~c~1~1/1e~~d1~a~1/1f~egdh1~1/1c~ce1edg1/1dafdbd1c1/1cfaecfhb1/10
10/1~g1~~~1~1/1~e1~~~~~1/1e2~~~~~1/1hd~h~a~~1/1chfg~ecf1/1gegh~ade1/10
10/1~~~~~~~~1/1b~~~~~~~1/1f~~~~c~2/2~1~~df~1/1~~~h~2~1/1fhdcd~b~1/10
10/1~~1~~~f~1/1~~~~g~1~1/1~~~~1g~~1/1f~~c1f~~1/1hf~1b1af1/1gha1fbcg1/10
10/1~~~f~g~~1/1~~~g~ad~1/1f~~c~1h~1/1a~~be~1a1/1gha1b~~d1/2afecb~f1/10
10/1ha~f~~1~1/3~e~~a~1/1~~~b~~1~1/1~~h1f~h~1/1~~gcg~a~1/1~dbe1ced1/10
10/1efa~d~b~1/1h1gf1~1~1/1b~ba~fb~1/1g~hbfbd~1/2cegaec~1/1bh2f1dh1/10
10/1~1~~1~d~1/1~1~~f~cg1/1~~bab~1f1/1e~1h1~~2/1gc~gb~dc1/1ae~1hbga1/10
10/1f~~~1h~~1/2~~1~g~~1/1~~~~~e~~1/1eb~~~1~~1/1cd~~cb~~1/1aeadgfhg1/10
10/2~~~~a~~1/1~h~~~1~~1/1de~c~f~~1/3f1~1~a1/1~h1h~b3/1ecdfcab~1/10
10/1~~~1~ca2/1~c~f~a1a1/1~a~1eged1/1~1~dg2a1/1hb~fab~2/1ada1begh1/10
10/2ch~~d~2/1~e1c~1~c1/1~1be~a~2/1~ahf~f~a1/1d1ac~g~g1/1gbgbec~d1/10
10/2g1~~2h1/1~c~~~f~g1/1~f~h~b~c1/1~1~gdf~2/1d1~hb1~g1/1bdg1gh1b1/10
10/1~1~~~gfe1/1h~~~gec2/1c~~~a1ef1/1dfc~d~hb1/1hgbfh~ca1/1gbdef~1d1/10
10/1b~1~~~~f1/1g~1~~~~c1/1c~aged~e1/1e~cbfh~a1/1d~ghce~2/1a~e2f~g1/10
10/1~~b~h~g~1/1~~1~1~f~1/1f~~~~~ce1/1b~c~hef2/1f~ge1g1g1/1bdbdebgf1/10
10/1~1~be~c~1/1eb~d1~d~1/1a1~fe~a~1/1dc~df~1~1/1b1cgh~c~1/1fhe1fb1g1/10
10/1a~~~1~d~1/2~~~h~h~1/1~~c~1hf~1/1~ge~~1e~1/1~eag~db~1/1f1ch~bhf1/10
10/1c~e~b~~~1/2~1~g~~~1/1~~f~1~~~1/1dg1~c~~2/1ba~af~~g1/2gfg1dfe1/10
10/1~~1~~~hd1/1~1~~~~c2/1f~h~~~1~1/1cfa~g~a~1/1gc1ec~d~1/2fed1~g~1/10
10/1h~~~~1gf1/2~~~e~h2/1~~~~d~1d1/2~~~1~~h1/2c~~~~~f1/1~fg~ec~2/10
10/1~~1~~~~~1/1~~~1b~b~1/1~~~~f~1a1/1~~~~1~~2/1f~~h~~~~1/2~h1a~a2/10
10/2fc~1b~g1/1~2~~g~b1/1a~g~h1cf1/1g~1~gbg2/1fgdcdefa1/1hcegh1hc1/10
10/2~gfh~~~1/2~2f~~~1/1d~abg~~~1/2~bchd1~1/1gefebfag1/1hchbacec1/10
10/1~1~1~d~~1/1~e~b~1c~1/1~h~d~~h~1/1~e~1~~fg1/1f1edea1d1/1gedabdhc1/10
10/1a~d~~~~~1/2~a~~1~b1/1~~g~~~~2/1~~1~~~~~1/1eb~de~~~1/1fefh1gh~1/10
10/1~~ha1~~2/1~~ac~~eg1/1~f1g~~bc1/1~heh~c1b1/1~2d~dbc1/1dbe1~cfh1/10
10/1~d~~~~~~1/1~1~c~h~~1/1~~~ghd~~1/1bd~1c1~f1/1df~1bd~e1/1chegd1cg1/10
10/1fh~~~~e~1/2a~~~~a~1/1~1h~~c1~1/1a~bgfg~~1/1bdfagahb1/1ceadfhfd1/10
10/1~~1~f1~~1/1~~~~1f~~1/1h~~h1d~~1/2~~g~eg~1/1~~~1~1e~1/1~~e~cedc1/10
10/1~1a~c~~e1/1~~g~h~ef1/1~~1~1~h2/1g~fah~ba1/1hadc1fd2/1ghbgbdgf1/10
10/1bh~ba~~f1/1e1b1fd~2/2~1~1cb~1/1~~h~~gca1/1febg~bfb1/1badc~ahc1/10
10/1cacf1~~~1/1eb1c~e~~1/3fb~g~g1/1cg2~d~d1/1ga~~~f~a1/1h1b~debh1/10
10/1g~h~d~ed1/1c~1~c~3/1d~~fb~~~1/1c~~b1~~~1/1d~e1b~af1/1b~c~1gha1/10
10/1c~df2e2/2~1e~~d~1/1~cgd~~1~1/1eacf~b~~1/1gdebaga~1/1b1d1f1d~1/10
10/1~a~g~~3/1~1cf~~1~1/3f1~~~~1/1gba~~~~~1/1e1d~c~b~1/1dbe~a~e~1/10
10/1~~~~~~1~1/1~d~~~~1~1/1~e~~~~ga1/1f1~~~~ab1/1be~h~cbg1/1f1~cdhe2/10
10/1~2~~~df1/1~~1~~~a2/1~~~~~cd~1/1~~~~~b1~1/1~~~~~cg~1/1gef~1aeb1/10
10/1~f~~~~3/1~eb~~~1c1/1~1cd~adh1/1~dg1~bcd1/1hc1geghc1/2fa1ba3/10
10/1~~~~1c~~1/1~1~~~1~~1/1h~~~~~f~1/1ba~g~~1~1/1afec~g~~1/1bacebh~h1/10
10/1~~h~~1~~1/1~1a~~~~~1/1~~c~~~~~1/1~~h~~~f~1/1~~c~~d1~1/1~~1a~1fd1/10
10/1g~~~~~~~1/1he~~~h~~1/2df~~f~~1/1b1h~~1b~1/1hfgcaeca1/2gfgbadb1/10
10/1~~~e1~~~1/1~~~1~~~~1/1~~da~~b~1/1~d2~~1~1/2c~~~~ce1/1bg~a~ga2/10
10/1dh~~~ea~1/2g~~~2~1/2e~~~~1~1/1~g~~~~~~1/1~f~~~f~~1/1e1d~hcac1/10
10/1ehgf~~f~1/1a1dc~~a~1/2eh1~~eg1/1~c1~c~1h1/1bhahegaf1/1abda1acg1/10
10/1~1~~~~1~1/1~~~~~f~~1/1~~~~~b~~1/1~hg~a1~~1/1~gae1~bg1/1~cec~hgf1/10
10/1f~2~1g~1/2~1~~c1~1/1e~1~b1h~1/1gb~~h~ec1/2d~cafgd1/1feageb1h1/10
10/1~~~~~~~~1/1~~c~h~~~1/1~~gbf~~~1/1ce1fd~~a1/1dg1eh~dg1/1f1ba1fe2/10
10/1~~~~~~1~1/1~f~1~~~~1/1~g~~~1~~1/1~1~~c~~g1/1~~~~b~~c1/1b~d~d~~f1/10
10/1~1~~d1b2/1~~e~1~f2/1~c1g1~d~1/1eg~d1~f~1/1a1~1d~a~1/1cghghcbh1/10
10/1~1~~~a~c1/1~f~~~f~h1/1ac~f~1~2/1e1~bhd~~1/1bc~d1f~~1/1de~e1c~b1/10
10/1~~1~~~f~1/1~~~~~~e~1/2~~~~~1~1/1~c~fdg1~1/1~f~bcba~1/1fhghadea1/10
10/2~~~g~1~1/1~f~~1~1~1/1~h~~~~~~1/1~2g~aeh1/1~~f1ehcb1/1b~ad1dgc1/10
10/1~be~~~~c1/1~1b~~c~a1/1a~1~~f~f1/1ed~~~a~2/1hc~ag1~h1/1fgebcfbd1/10
10/1~~~bfc~a1/1~~~f2~g1/1~c~1~1~2/1~h~a~bhe1/1ecd1~a1c1/1ada1acgf1/10
10/1~~~b~1~~1/1~~~1b~~~1/1~hc~1f~~1/1~b1g2~~1/1b1~h~g~~1/2~c1~f~~1/10
10/1b~~~~~b~1/1a~~~~~1~1/2~~g~a~~1/1d~hd~g1~1/1efc1~e~f1/1dcfe~deh1/10
10/1~~~age~~1/1d~~1ec~~1/1a~~~f1~~1/1h~~ea~1e1/3~f1dhg1/1a~~egcgc1/10
10/1~1~2~~~1/1~~~~1~~~1/1~~hbg~c~1/1~~e1a~fh1/1degdf~1b1/2caf1~1c1/10
10/1~c~~h~~~1/1~1~~d~hf1/1~d~ac~gd1/1~b~2~3/1gdb~hded1/1cba~e2f1/10
10/1~b~~~~~~1/1~1a~~~~~1/1~2~~1~~1/1h1~~~~~~1/1g1~e~e~d1/1b1dh~1ag1/10
10/1~~~~g~~~1/1~~~~1~~~1/1~~~~gbed1/1~~~1dade1/1~a~h1bc2/1~fdf~hfc1/10
10/1~~~~1b~~1/1f~~~~1~~1/1c~~d~1~~1/2~~c~a~~1/1h~fagbg~1/1aed1a1he1/10
10/2~b1~~~g1/2~1~~c~2/1a~~~~e~e1/1g~~faf~d1/1ed~1fabh1/1fb~hbfca1/10
10/1~~~1~g1e1/1~~eb~1ab1/1~~dc~gfh1/1~~f1fdhc1/1d~gahfe2/1bgafb1ca1/10
10/1~~f~~f~b1/2~gb~1~f1/1h1bf~c~2/1de2ae~~1/2hc~dgha1/1gd1ab1dh1/10
10/1~~~c~~~~1/2~~1~~~~1/1~~~~~~h~1/1d~~~~~fh1/1c1~~~~d2/1f~ae~efa1/10
10/1~~~~h~d~1/1~~~g1~c~1/1~f~hb~1~1/1e1~bfa~~1/1af~dgc~~1/1ec~cf1~2/10
10/1~~~~~~1~1/1~~~~1~~~1/1~~~~a~f~1/1~~~hc1b~1/1b~~fh~1~1/1cd~d1~~a1/10
10/1h~f~1ebf1/1efd~1bfg1/2a1~dah2/1~b~hbf3/1fcga1h1b1/1dfe1dfec1/10
10/1~b~~~~a~1/1~c~~~~fa1/1ae~~~a1g1/1efe~ah~h1/1aed~be~d1/1fbg1f1gc1/10
10/1~~~~~fgf1/1~~~c~1ce1/1~haf~efb1/1~gd1~c1h1/1df1~~a~b1/2geaebaf1/10
10/1~~1~1~a~1/1~~gd~~1h1/1~~dg~~1a1/1h~1ae~~g1/1c~efb~~c1/1fedcfb~2/10
10/1g~~~1a~~1/2e~~~1~~1/1~1~~~h~~1/1~~g~~1~~1/1fe1~fb~h1/2bd~edab1/10
10/1~1~~1~~~1/1~~b~~~~~1/1~~f~~1~e1/1~~1~~~~2/1~~~hg~~~1/1hg~bfe1~1/10
10/2~~g1~~~1/1f~bca~~~1/1aec1b~d~1/1bgfhfah~1/2bgc1def1/2hcf1gha1/10
10/1~~~~~1~b1/2~~~~~~2/1~~~~~~~d1/2~~~~g~2/1~~~~~1~2/1a~d~a1gb1/10
10/2~~d~~~~1/1~~~b~~1~1/1~~~1~~~~1/1~c~1~~~~1/1c1e1~~bc1/1gca1dgea1/10
10/1~~f~~~cb1/1~~1~a~ag1/1~~~~c~1a1/1~~~f1~~2/1d~~d~~~~1/1bhehg~~e1/10
10/2g~~~~ce1/1~hc~~~1b1/1hdg~~~~2/1eabege~h1/1fd1hfhbg1/1a1aebeh2/10
10/1~~~1~~a2/1~~~1~~3/1~~~1~~f~1/1~~f~~~1~1/1~~gda~1~1/1~~bgd1bg1/10
10/1~~1~ga~~1/1a~~~1d~~1/1df~dg1~~1/1ab~hb~~a1/1he~egh~2/1db~f2de1/10
10/1e~~~1~~~1/2~~~f~~~1/1~~a~eb~~1/1~~f~gh1h1/1~2gd4/1c2abdch1/10
10/1~~~2h~~1/2~~1edge1/2~~~c1ad1/1b~~a1ed2/1ae~g~1eb1/1egcadgah1/10
10/1fg~1fg~~1/3~c1a~a1/1~h~a~f~e1/1df~f~bdc1/1ag~geheb1/1hcdcafce1/10
10/1~~~~~c~~1/1~~~~~d~~1/1~b~~~2f1/1~g~~d~g2/1~1~~1~b~1/1~f~~1~1c1/10
10/1~~bf~e~b1/1c~1g~c~2/1dc~f~d~f1/1ef~1aeah1/1dgagh1bd1/1a1degfec1/10
10/1~bf~~e1a1/1~1b~g1~c1/1~~1~d1~g1/1~1b~a~~2/1faeaeh~2/1ahcdhe~b1/10
10/1~~1~~f~~1/1~~d~~1~~1/1~g1~~a~~1/1~1g~h1~~1/1d~c~f~~2/1a~1~h~~c1/10
10/1~~~h~~~~1/1~~~g~~~~1/1~ch1~~~a1/1~ga~b~~f1/1~bg~f~g2/1~1c~e1e2/10
10/1~~ef1a~e1/1~~d1~1~a1/1~~cea~~2/1~d1fdg~b1/1hagdhe~a1/1gc1b1dbh1/10
10/1~bcbch1~1/1~fgfa1gd1/1~b3e1a1/1~dg~ebch1/1~1bg1cga1/1e1cabe1c1/10
10/1~~3b~h1/1~~~~2~2/1~~f~aec~1/1~~gdf2~1/1~a1c1dg~1/1ebghcgc~1/10
10/1~~~cgc~~1/1~~~adh~~1/1~~~3~~1/1~b~~f~~~1/1df~~1~~a1/1fbagb~hb1/10
10/1~a~hfd~~1/1~d~2f~~1/1~1~cge~~1/1~e~1h1~~1/1fb~ebcgf1/2fbceafc1/10
10/1~f~c1~h~1/1dg~ac~eb1/1e1~ea~fc1/1c~~2hag1/1g~baba1c1/1fdfchc~f1/10
10/1~~~1~~~d1/1~~~~~~~e1/1~~~~~~~2/1~c~~~~~f1/1becbcdhb1/1efd1ahaf1/10
10/1h~~1~~1~1/1a~~~~~~~1/1d~h~d~~~1/1g~fch~ca1/1dhghf~gh1/1g1dbdfbf1/10
10/1~~~1~1~g1/1~d~f~b~f1/1~g~1~f~e1/1hf~cae~a1/1ag~abgcg1/2bah2ad1/10
10/1~~a~~~~b1/1~~e~~~ha1/1~~1~~~1d1/1~~~~~c~2/1f~~~~1~~1/1dfbf~ceh1/10
10/1~~~~~f~2/1~~~~~h~~1/1~~~1~1bh1/1cg~~~~cf1/2dg~~~1b1/1~ebeb~fd1/10
10/2~~e~b3/1~~~1~1~~1/1~~~~~~a~1/1~~f~~~c~1/1d~b~fad~1/1bfe~bhch1/10
10/1~~a~h~1~1/1~~e~b~1~1/1f~1~c~bg1/1b~d~1~cb1/1c~b~c~1g1/1a~dfehc2/10
10/1~~~~~~1~1/1~~~~~~1~1/1~h~~~g~~1/1~e~~~1~~1/1~fa~~fa~1/1~eg~1h1f1/10
10/1~1~~~1b~1/1~~~~~2~1/1~~g~a~~~1/1~~bh1d~~1/1~~1fa1~~1/1~dfge~he1/10
10/1~~1~~~~~1/1~~a~~~g~1/1~~1~~h1~1/1~~~~~1~b1/1~~~~fe~c1/1be~hgcaf1/10
10/1~1~~~~~~1/1~~~~~~~f1/2~~~c~h2/1~~~~1~e~1/1cb~~~~bg1/1ge~~~1fh1/10
10/2g~ce~~h1/1e1~fa~~2/1bd~ce~~~1/1ef~d1bad1/1g1cb~ghf1/1egdf~ebe1/10
10/1c~e1~~~~1/2~1~~~~~1/1~~~~~h~~1/1~~~~~d~~1/1g~~~b1~g1/1hbdcfehf1/10
10/2~a~~~~g1/1h~g~~~bh1/1g~b~~bcf1/2~1hea3/1gafchf~b1/1dhehfadc1/10
10/1~~c1h~~d1/1~~1~g~bc1/1~~~~b~g2/1d~~2~1~1/1a~g~~ea~1/1chce~bca1/10
10/1c~~1~b1~1/1hdh~ag1~1/2cg~ea~f1/1dba~g1~g1/1g1efcf~b1/1hfhcbgh2/10
10/1~~~f~c~g1/1~~~d~a~e1/1~abh~c~b1/1bce1cg~e1/1ghgbgc~2/1ececfdg2/10
10/3~1~~~~1/1~1~f~~~b1/1~~~g~1~2/1~~~1~~~~1/1~eag~b~~1/1~fehga~h1/10
10/1~~~~1~~d1/1~~c~~g~2/1~~1a~1c~1/1h~h1~b1~1/1g~1~~e~~1/1c~ea~b~d1/10
10/1~~~~~2e1/1~~c~~2d1/1~~f~~g~b1/1g~ae~1~2/1a~hd~~~b1/1gfcahcgc1/10
10/1e~f~~f~c1/2~1~facd1/2~e~gcea1/1~eaec1dg1/1~adfhegh1/1~d1cfd3/10
10/1~~~~~c~~1/1~~~~~1~e1/1~~~~1~~c1/1~~~~~d1d1/1~a~~~1~2/1~g~ea~~g1/10
10/1~c~~1~f~1/1~b~~f~d~1/1~1~~1~h~1/1~g~e~2~1/1~e~1b~bh1/1~1g~c~1d1/10
10/1~2f1ha~1/1h~1a~be~1/2~~1~ah~1/2~~ec2~1/1acghe~dh1/2hdfhbhg1/10
10/1~~~~c1be1/1~~~~b~ah1/1~g~~ebhf1/1gc~bcdfd1/1hd~gac1f1/1gha1eb3/10
10/1~g~3~c1/1~bg~d~~e1/1~ch~c~~d1/1aed~g~he1/1fhebcabd1/1geb1fceg1/10
10/1d~gb~~~a1/2hcg~~~2/1~g1d~~ed1/1~1~fcec2/1hbabahfa1/1fhbhfche1/10
10/1eha~db~~1/1gabef1~~1/1hfachf~~1/1c2acgb~1/1gbhg1hdb1/1f2ac1f2/10
10/1e~~1~~~2/1g~~1g~~~1/2~c~ac~~1/1~~gfda~b1/1behdb1~h1/1d1fegbab1/10
10/2~~h1~~~1/1~~~g~b~~1/1~g~dge~f1/1hc~1eb~d1/1bhfebahg1/2cgahdae1/10
10/2bdeg~~g1/1~dfh1~~e1/1a1h1d~e2/2cgbh~ge1/3d1f~ab1/1bef~c~h2/10
10/1~~~~~~a~1/1f~c~~~1~1/2~ga~h~f1/2~1g~g~d1/2fg1hf~2/1~dc2h~~1/10
10/1~fb~h~~e1/1~c1~c~hd1/1~1gad~eh1/1~~hdfead1/1~cg1ecf2/1bhaeafdf1/10
10/1h~aea~eg1/1g~cdc~gf1/1feghd~3/2df2~cb1/1gfb~f~1h1/1dhe~eb~e1/10
10/1~c~~bh~~1/1gb~~1d~~1/1ce~~1b~~1/1d1~~2a~1/1h~gb~he~1/2~cedcba1/10
10/1~da1~a~~1/1~2~~1~~1/1~g~~~~~~1/1~1~~~1~~1/1f2c~~g~1/1deca~1fe1/10
10/1~~~~~h~d1/1~~c~~1~e1/1~~f1~~a2/1h~1~dab~1/1gc1~geg~1/1bfde1fce1/10
10/1~~~~f1~~1/1~~~eb~~~1/1~~~b1~~~1/1~~~a1~af1/1~e~h~~hc1/1bc1dbcdh1/10
10/1~~~~~~~~1/1~f~~~~b~1/1~1~e~~1~1/1~~g1~~~~1/1~~2~d~d1/1~~gf~e~b1/10
10/1~h1gc~~d1/1~1~dg~~2/1~f~fch~g1/1ecadgcgf1/1a1ebhbd2/1c1defcge1/10
10/1~~2~~~~1/1~~d~~~~~1/1~h1g~g~~1/1~2chac~1/1eagbe1de1/1b1aebdga1/10
10/2~1~~~1~1/2~~~~eh~1/1~~~~1d1~1/1~~~~~a3/1~~~~~1ch1/1a~e1c~ad1/10
10/1~~d~~~~d1/1~~1~~~~2/1~~1~~~~2/1~~~~~f~f1/1hd~~~d~2/2b~~bhb2/10
10/1~~~~~~~2/1~b~~~~~2/1~1~~~~h~1/2~~e~~da1/1~~~dgcge1/1~cd1dhba1/10
10/1~~~~~~~g1/1~~~~1~~2/1~~~~~~~2/1~fe1~~~~1/1~bf~~b~~1/1~2e~1~g1/10
10/1~~~1cf~~1/1~~fbae~a1/1fhed1g~b1/3bh~d~f1/2~dc~1~a1/2f1eghde1/10
10/1c~~~~~1~1/1a~~~~b~~1/2~~~a1~~1/1~~~~1~~~1/1d~~~~g~~1/2~gcd1b~1/10
10/1~bag~ea~1/1~a1c~ce~1/1~1eg~bc~1/1~dchd1b~1/1abhag1eg1/1dcb2eg2/10
10/1b~~~~~b~1/1a1~~~~1a1/1d~~~~~fc1/2fd~~~3/1dh1~1g3/1ae1ehegc1/10
10/1~~cf~~a~1/1~1e1~~1~1/1~g1g~~~~1/1~1e1~~~~1/1~bh~~ga~1/2hb~a1fc1/10
10/1a~ech~~c1/1f~gd1~~b1/1c~d1fd~2/1b~f~ahf2/2~1~gead1/2~dahfc2/10
10/1fb~~~~~~1/1eh~a~~~b1/1ga~e~~~d1/2h~1~~~2/3~~e~h2/2gh~d1fd1/10
10/2b~1~~b~1/1~e~1~~a~1/1~1~1~~c~1/1~~~1~~1~1/1fe~hdgh~1/1ah~gcdf~1/10
10/2~~a~~~~1/1~~2~1~2/1~~a~~~~~1/1~2~~~1~1/1~~~d~~~~1/1~f~f1~d~1/10
10/1fh~~~gf~1/3~~~a1~1/1~1~~e1a~1/1~~~cbd1~1/1~1~be1h~1/1gd~gf1cd1/10
10/2~~df~~~1/1~c~1d~~e1/1~1~~e1g2/1~~~~d~f~1/1~b~2~1~1/1b1~~fgc2/10
10/1~~~~~~~~1/1~~~eb~~~1/2~1dh~~~1/2~aca~~~1/1e~f2~~~1/1fhdcbdcf1/10
10/1b~~~~2~1/1c~~~g~~~1/2~~f1~~2/1~~~d~~f2/1~c~h~~gd1/2dhb~~1g1/10
10/1~1~d~~~~1/1~c~1~~~~1/1~e~~~~~2/1~h~~~~~~1/1~1cd~~1~1/1bh1e1~1b1/10
10/1~~~~~~dg1/1~~~~~~3/2~~~~~~~1/1~~1~f~~b1/1egb~ghfc1/1d2hdceg1/10
10/1~~1~c~h2/1~~~~1~1~1/1~~~~1~~~1/1~~~~~~~f1/1g~~fd~eg1/1ecadh~a2/10
10/1~~d~~~c~1/1~~f~~~h~1/1~~1~~~1~1/1~~b~~~~a1/2~g~~h~c1/2fcd~bag1/10
10/1~~~2~~~1/1~~~g~~~d1/1d~~1~~~2/1b~fd~ech1/1e~d1acha1/1cfg1dabg1/10
10/1~1~~~~~~1/1~2~d~~g1/1~~1~h~~c1/1~~1~1d~2/1~~ef1c~~1/1adgeaf~h1/10
10/1f~~c~1~2/2~~e~1~2/1~~b1~~~a1/1~~a~~~de1/1~df~b~fc1/1b2cfcdb1/10
10/1~e1e~~1~1/1~c~1~~~~1/1~1~h~~~f1/1~~~f~~~2/1bc~bd~b~1/1aehebaed1/10
10/1g~h~~~~2/2~1~~~~~1/1~~~~~~~c1/1~a~eg~eb1/1cd~hc~ah1/2cdbg~cb1/10
10/1~~e~~g~~1/1~~c~~1~~1/1~fa~~~~~1/1dg1~~~e~1/1hfhb~c1~1/1f2dabg2/10
10/1~~~~1~~c1/1~~~~~~~2/1~~~~~~~a1/1~bd~~~~c1/1~h1h~f~b1/1fefeda~d1/10
10/1cf~~~b1a1/2h~~~1~f1/1d1~gcg~g1/1gh~hfhda1/1e1e1gegh1/1d1debgf2/10
10/1~~1~~f1~1/2~~~~a1~1/1~~d~~1~~1/1~~1~~~~~1/1~~~bd~~c1/1bg1cg~fa1/10
10/1g~~d~~~~1/1ae~1~~~~1/2b~1~~~~1/3~~~~a~1/1ech~~~fc1/1dhebd~gf1/10
10/1g~~eb~~2/2d~bd~~h1/1~f~d2ce1/1gb~1e1a2/1ecfhfb1a1/2geahadh1/10
10/1~1bf~~1~1/1e~g1~~~~1/2~1d~~~a1/1~f~g~~~2/1~ea1~~gb1/1~dhc1~hc1/10
10/1~~g~~2~1/1~~b~g~~~1/1~~1e1~~~1/1bf~c~h~~1/1fhagd1~~1/1egdbchab1/10
10/1~f~cb~1d1/1ca~2e1b1/1eb~1~1~g1/1d1~~h~~f1/1fhd~bdhd1/1bcbec1ga1/10
10/1~c~~~~1~1/1d2~~~~~1/2~~~~~~~1/1~~~~~~~~1/1~~~~~~~2/1fa~1fdac1/10
10/1~~g2e1f1/1~~h~~cec1/1~ebhabg2/1~dcfhg1~1/1~cfcdeaf1/1hdhbcgdb1/10
10/1~hda~g~~1/1afbh~f~~1/1gdg1~c~~1/3bhab~~1/1~~dbh1h~1/1ecfad1de1/10
10/1~~g~~b~d1/1~~1~~d~f1/1~gb~~1~g1/1~bd~h~af1/1hae~be1g1/1eg1fedea1/10
10/1h~~fb~~~1/1d~~3~~1/2h~~e~~c1/2d~~f~~b1/1aca~g~~2/1edgfe~f~1/10
10/1~~g~1~~e1/1h~e~b~ah1/1f~b~a~ea1/1g~fhf~ge1/1cfbdba3/1fghc1dae1/10
10/2~~~~~~b1/1~1~~~~~2/1~1~~~~~c1/1~~~~~~~2/1f~~~~~e~1/2~~eb~cf1/10
10/1~1ed~~~~1/1~~1h~g~~1/1~~~1~1~~1/1~~~~~b~~1/1f~h~~e~~1/2d1hfg~b1/10
10/2a~~1~~c1/2f~~1h~g1/1gecg~eaf1/2fhd~gbd1/1fba1afg2/1dgbfg1fc1/10
10/1e~~~b2~1/1b~~~f~bf1/1e~h~h~ea1/2efce~dg1/1bdcfgh1d1/2gah1age1/10
10/2~f~2f~1/1f~1~~~b~1/1cfa~~ch~1/2hec~ab~1/1g1degde~1/1baefacg~1/10
10/1~~~~~~3/1~~~~~b~e1/1f~h~~d~h1/1b~b~~h~a1/1hf1~~1gc1/1gdecgbab1/10
10/1~d~~1~1~1/1~e~d1~~~1/1~1~h~e~b1/2~~a~1c2/1b~g1~eg~1/1f~afg1ch1/10
10/1g1d1~~~~1/1e~gd~~1~1/1a~2~~hc1/2~f~~~b2/1d~1f~g1b1/2checade1/10
10/1~~g~~hf~1/1~~h~~ea~1/1g~e~~dg~1/2~hfga1c1/2gebfcba1/1ed1hgfae1/10
10/2bd~~~gd1/1~da~~c1f1/1~1b~~1~2/1eah~~fh2/1ad1~cedg1/3gahdfh1/10
10/1~1abf~~g1/1g~1ecf~c1/1bf~aea~2/1aef2b~d1/1chbhcd~f1/1b1eahghe1/10
10/2~~~1~~~1/1dac~~~~~1/4~~g~~1/1ea~f~df~1/1h1ce~ed~1/1agdada1h1/10
10/2bdgd~~~1/3b2a~~1/1d~1~~h~~1/1e~ce~a~~1/1ac1b~b~~1/1bgbdg1h~1/10
10/1~~1~ed~~1/1~~~~f1~~1/1d~~1h1~~1/2~~~1~~~1/1hg~~1~ga1/1fa~~a~e2/10
10/1~1a1~~h2/1a~c~~~1~1/1f~1~g~~~1/2~c~bf~~1/1~~bgh1~~1/1ecfb1he~1/10
10/1d~~1g~a~1/2~~~1~g~1/1~e~~g~1~1/1gh~~dgfa1/1fcfbehdb1/1c1hdgf1e1/10
10/1hd~1~~~~1/1gc~1~~~d1/1de~1b~~a1/1a1~2~~b1/3aeg~ag1/2cdcf~hf1/10
10/1~~~~ef1~1/1f~b~dc~~1/1g~acehga1/1edbd1bce1/2fec~1fa1/1ahca~abe1/10
10/1e~~~~~~~1/2d~~~~~~1/1~2~~~~~1/1~~h~~~~~1/1~~1~~~ga1/1dgc~ahec1/10
10/1~~~~~f~~1/1~~~~d1~~1/1h~~~2~~1/1g~~~e~h~1/1hfc~1bfe1/1bgdghchc1/10
10/1~a~~ge~~1/1~fb~ahge1/1~ge~1cdb1/1~cd~~df2/1~fb~cade1/1eh1bf1fa1/10
10/2~~g~~~~1/1~~he~~~~1/1~~df~~~~1/1b~fb~~~d1/1cfh1~~ag1/1edbc~~1a1/10
10/1~h~1~~~~1/1~1~d~~~~1/1~~a1~~~~1/1cdf~ha~~1/1e1a~2c~1/1be1~af1b1/10
10/1g~~~cb~~1/1b~~fh1~~1/2~~h1da~1/1~d~1~gd~1/1h1~e~eg~1/1adcf~2~1/10
10/1~1~1dg~2/1e~~~gd~~1/1a~~~fc~~1/1de~~1hb~1/1efbfd1h~1/1fechcea~1/10
10/2h~~1~~~1/1~c~~~~~~1/1c1da~b~~1/3c1~h~a1/1dbecfgeb1/1fcfbd1cg1/10
10/3~~~d3/1~~gc~1~~1/1~~fd~~~~1/1~g1a~~~c1/1dbfh~~~h1/1f1eba1ea1/10
10/1~~~d~~ga1/1~~~h~~1b1/1~~~d~~~e1/1~c~c~~~2/1~1~g~~~c1/1eb~ahc~2/10
10/1e~1b~f~~1/1bh~c~a~~1/1de~b~ga~1/3~3f~1/1~dg1debh1/1d2bec1c1/10
10/1~1~h~~~d1/1~1~a~~~2/1ehe1~dec1/1acge~bf2/2ea1f1hb1/1gahcagbc1/10
10/1bg~b~b~~1/1da~f~e~~1/1gcea~fhb1/1hfd1~agd1/1ge1cdhfc1/3cea1d2/10
10/1~~~~~~~~1/1~~~f~1~e1/1~~fb~~~d1/1~~c1ec~2/1~d1~bd~~1/1hahdgag~1/10
10/1b~1~~~1~1/2~~~~~~~1/1~~~~~~~~1/1h~~a~~~~1/1g1~d~~cb1/1a~~c~gdh1/10
10/1~h~a~g~g1/1~1fe~f~2/1~~a1d1~e1/1d~b~bg~a1/1fbaegchg1/1ch1c1f1a1/10
10/1eae~~f~~1/1g1c~~a~~1/1hg1~~g~~1/1f1~~abhd1/1cba~gcec1/2fecbfbd1/10
10/2ab~1~~f1/1g2~~~~a1/1ae~~~~~f1/2g~~~~ba1/1~h~ad~h2/1cabc1hed1/10
10/1~~~~1~1g1/1~~h~c~~d1/1~~c~g~e2/1~eg~dabh1/1fba2gfg1/1gd1fgb3/10
10/1~~~h~~~b1/1~~~b~~~d1/1~~~a~gh2/2~~1c4/1~~b~a~fd1/1fdgc1fbg1/10
10/1~a~fhfd2/1eg~3f~1/1bh~~~h1~1/3~~~1~~1/1~f~~egab1/1~dg~adbh1/10
10/1~2a~~~~1/1d~~1~~~~1/3~~1~~~1/1~~~~~f~~1/1d~~2g~c1/1chaf~hgf1/10
10/1g1f1c~~~1/1h~a~d~~~1/1bhg~1b~~1/2bdc~e~c1/1ahgf~age1/1cbdcdgch1/10
10/1~~~c1~f~1/1~~~a~h1~1/1~~~bha~~1/1~~~c1g~b1/1f~~1e1ea1/1d~gdfa1c1/10
10/2~3a~~1/1~~~d~1~~1/1~~~e~e~~1/1~~~d~a~~1/1g~~g~1~~1/1b~2bg~~1/10
10/1~b~~~f~~1/1bd~~1e~f1/1f1~~~h~2/2~~~cg~~1/1~~~~ed~g1/1gacafeh2/10
10/1e~f~~g~e1/2~b~~adh1/1c~f~~1gd1/1e~ea~h3/1ahachec~1/1gcdhb2b1/10
10/1~2~1~h~1/1~~a~~fag1/1~cd~~1hf1/1~f2~fdb1/1~d~h~c3/1g1a1cabd1/10
10/3~~2~~1/1~~~~~~~~1/1c~~~~f~~1/2h~~~e~~1/1~g~~b1ef1/1ehg~chbh1/10
10/1~~d~~1~~1/1~~h~~~~~1/1~~f~~~~~1/1~~1b~1~~1/1hg~a~~~~1/3fdb~ga1/10
10/1~~~1g~1~1/1~~~hd~1~1/1~~b2~~~1/1a~c~1~~d1/1b~e~~dgh1/1d~hcheba1/10
10/1c~~~~~3/2~~~~~1~1/1hef~dg~d1/1chc~cd~f1/1baf~hfbh1/1dgceagdc1/10
10/1~a~a~~~~1/1~1~f~c~~1/1~c~1bf~~1/1~1g~c1~~1/1dbf~1g~~1/4dce~e1/10
10/1~~~~~~1~1/1~~~~~~~f1/1a~~c1~~a1/1c~~1~~~2/1gh~e~~~f1/1degd~h~h1/10
10/1~~1~~~e~1/1~~1b~~a~1/1a~dh~~1~1/1h~2f~~~1/1b~b1b~~~1/1efhe1~~d1/10
10/1e~~eb2~1/1c~gd1~df1/1h~1e~~ac1/2gb1gh1f1/1ah1~ech2/1eacfbdag1/10
10/1~~~~a~~2/1~d1~e~~~1/1b1g~c~~~1/2~h2~h~1/1dfagf~be1/1feca1~ha1/10
10/1~~~~~~~g1/1~h~~~~~f1/1~d~h~~~2/1~g3~d2/1ch~~a~1~1/4fgcah1/10
10/2~~e~1~f1/1~~~c~a~h1/1gf~da1~a1/1fac3~c1/1cbgaedhd1/1fcbefeah1/10
10/1~~~c~e~~1/1~~~a~f~~1/1~hc1~1~2/1~1bg~f~~1/1~e2~a~~1/1dbhd~1~g1/10
10/2~b~~~~~1/1~~1~~g~~1/1~~~~ch~~1/1~~~bf1a~1/1~~ehehda1/1~cfdbg1h1/10
10/1bg~ahfbe1/1cd~cdgd2/1fe~efb1h1/1hd~2f~a1/1ec~d1e~b1/2dbf1fh2/10
10/1g~~c~~~e1/1c~~2~~2/2~1~1~~c1/1~d~f~c~2/1af~d~g~d1/3gc~a~e1/10
10/2~~~a1~~1/1~~~~fe~~1/1~de~3~1/1~1ab~hg~1/1b2c~cdc1/1c~f1h1gf1/10
10/2~~~1~1~1/1~~b~f~~a1/1h~f~1~bf1/1c~edhd1h1/1hc1gfahg1/1ag1e1cgb1/10
10/2~~e~1~g1/1~~~1b~~f1/1~~f~1~~b1/1fh1~~~h2/1aca~~cef1/1fefgf4/10
10/1~~~d~~~~1/1~~~1~~~h1/1~~b~~~~c1/1~~1~~~~2/1~e~~~~d2/1ec~~h1b~1/10
10/1c~1~~d~~1/2~~~~1e~1/1~~~~~~1~1/1~~~1~~~~1/1~~2d~c~1/1a1cae~1a1/10
10/1g~~a~~~~1/2~fc~~~a1/1~~c1~a~2/1~~fb~1~~1/1~3~e~~1/1~~eg~b~a1/10
10/1~~1~~ge~1/1~~~~~bc~1/1~~~~~1h~1/1~~~~~cf~1/1~b~~~d1~1/1bfdheg~c1/10
10/3~~ah1~1/2hf~dg1f1/1~1b~abec1/1~a1aghba1/1~g1cb1eh1/1gdhbgbda1/10
10/1~1~~~1~~1/1f1~~~~h~1/1c~~~fg1~1/1dh~~1he~1/1cgae1f1~1/1ae1agd1f1/10
10/1~~1~1~e~1/1~~1~1~1~1/1~~~~~~e~1/1~~~~~~3/1~~~~~g~2/1~f~gdfd~1/10
10/1~a~~~1c~1/1~f~~~~g~1/1~1~~~~1~1/1~1~eh~hb1/1~1~ac~eg1/1~feb1fch1/10
10/1~~1~cgf~1/1~c~~a2~1/1df~~1~~~1/1ab~~~~~h1/1g1ad~~ae1/1h~bcfaef1/10
10/1~~fc~~~~1/1~~eg~~~a1/1~c1d~g~2/1~ha1ghca1/2d1bhbeg1/2hehfedb1/10
10/1~~2~~~~1/1~~h~~g~~1/1~~b~~1~~1/1h~1c~~~2/1g~~a~1~~1/1adgc~b1d1/10
10/1~d~~1~~~1/1~b~~~~d~1/1~1~1~~g~1/1~~~~e~f~1/1a~~~1~a~1/1g~~b~fe2/10
10/1~~b~~d~e1/1~~1~~1~2/1~~~~~~~~1/1h~1g~~~f1/1fhbh1~~c1/2gc1bde2/10
10/1~~~fe1~~1/1a~2a~~~1/1hf~~gd~c1/1fc~~fgeh1/1ah~gch1c1/1hdbhbcba1/10
10/1~~~~~~c~1/1~~~~~~g~1/1d~~~1~1~1/1b~~~~~~g1/1ehd~~~ef1/2ebc~hf2/10
10/1~1~~~~bg1/1~~~~~~3/1~~~~~~~~1/1c~~~~~g~1/1b~e~~ed~1/3de~1cd1/10
10/1~~b~~1~e1/1e~1~~~~2/1a~~d~~~~1/1g~~f~~~~1/1d~~1f~1h1/1cgc1gbha1/10
10/1a~~~~a~~1/1g~~~~f~~1/1f~~a~db~1/2c~db1g~1/1h1~a1fhc1/1a~~g1ad2/10
10/1~g~1~~1g1/1~a~~~~ce1/1~f~~~~fd1/1g1gb~~ch1/1hfbe~hab1/1f1ha~ded1/10
10/1~~~~~~1~1/1~~1~~~~~1/1c~~2~~~1/1b~~h~g~~1/1a~hg~1~~1/1ba2ch~~1/10
10/1dh~h~~c~1/3~gh~b~1/1a~~ad~ca1/1ded1h1ab1/1eafdbegf1/1hebgag1e1/10
10/1bed~b~~~1/2af~1~~~1/1~h1~b~~~1/1~ag~fg1~1/1~ec~adc~1/1~1g1gh1b1/10
10/1~~~g1~~~1/1~~~1~~e~1/1~~~~~hb~1/1b~~~~g1~1/2~~~fda~1/1aec~hfdc1/10
10/1de~~~2~1/1e1~~~~eg1/1c~~~~~ba1/1g~dc~~g2/1e~cb~~de1/1d~ba~fgf1/10
10/1~~~1a~~~1/1~~~f1~~~1/2e~1~~~~1/1~f~~~~h~1/1ca~~h~1~1/1ef1f1bcb1/10
10/1~~c~g~fe1/1~~d~1~3/1~~f~g~b~1/1b~ed1ag~1/1f1ch~geg1/1e1fg1hfa1/10
10/1~~~2a~~1/1~d~~2~c1/1eab~~hfb1/1hfah~ach1/1cghbcdha1/1efbg1fgf1/10
10/1fbc~b~~~1/1ega~e~~c1/2ae~1d~f1/1hgf~cf~b1/1f1cgdc~h1/1dg1bcaeg1/10
10/1~~e1~~~~1/1~~2~~~~1/1h~1~~~~~1/1a~~~~g~~1/2bd~~eb~1/1dcg~a1hc1/10
10/2~~hb~~~1/1~~fa1~e~1/1~~e2~h~1/1~~a1e~1~1/1~f3~b~1/1gac1g~ec1/10
10/2~c3~2/1~~1~~~~2/1~f~h~~~e1/1gc~1~h~2/1b1~~~a~~1/1f~be~ga~1/10
10/1c~1g~~1~1/2~~1~~~~1/1~ef~~~~~1/1~bd~~~dc1/1fgah~~b2/1dafacdhe1/10
10/1~~~~~~~2/1~~~~~~~a1/1d1~~~~~d1/1ac~hab~2/1ede1gdbc1/2gbhdh1d1/10
10/1~g1~d~~2/1~ef2~f~1/1e1h~f~d~1/1da1cghf2/1bgbf1dgd1/1ghfcagfc1/10
10/2~~1~~gh1/1a~~~bc1f1/2~g~gf~a1/1e~fhdcbg1/1feagbaf2/2a1d1gdg1/10
10/1~~g~bg~~1/1~~1~hc~~1/1~~~ea1~~1/1~d~d1~~e1/1g1~bha~f1/2chgfh~d1/10
10/1~~~~e~~~1/1~f~~1~~~1/1d1~~c~~~1/2~~~f~~~1/1~~~b1~~e1/2gacbadg1/10
10/1~~~~~~~~1/1~~~~~~~~1/1~~~a~~~~1/1~f~e~1~~1/1b1~1~~d~1/1efhdbhfa1/10
10/1d~~f~~~~1/1h~~1~~~~1/2~~~d~~a1/1~~~~1~hb1/1~~c~h~bf1/1c~ebafeh1/10
10/2h~b~bf~1/1~1ae~1b~1/1chea~~1d1/1ab2bc~a1/1bcd1defb1/1hah~fadf1/10
10/2~~a1~~~1/1~~~b1g~~1/1~~e1~h~~1/1~~g~ce~a1/1b~a~h1fc1/1ded~fbab1/10
10/1~~c~~~~2/1~2~~~~~1/1e~~~b~~~1/1b~~hf~a~1/2~~dc~e~1/1d~~bhaf~1/10
10/1~ah~~~~2/1~cd~~~~~1/1~2~1~f~1/2~~~bd1~1/2~f~hgf~1/2g1db1ac1/10
10/1~~~~1f~g1/1~~~~cb3/1~~1~feba1/1~g~d5/1~b~eah1~1/1a1~chde~1/10
10/1f~~~~1~~1/2~1~~fb~1/1d~1~~agd1/1g~gc1ecg1/1egcf1h1a1/1hbg2e1f1/10
10/1fe~~~~~~1/2d~~~1~~1/1~1~~~~~~1/1f~~b~~~a1/1cabd~~~d1/1dc2ed~f1/10
10/1~1~~1e~c1/1~1~~~1~2/1h~~~~~~e1/1d~1~~1~h1/1bf~~~~~2/1defg~cgb1/10
10/1~~1e~~~2/1~~gh~~~~1/1~~acf~~~1/1~~hba~f~1/1cbd1e~hd1/1dh1hb~ga1/10
10/3~~d~~d1/1a1~~g~~c1/1d~~~1~~2/2~~~~~~~1/1~~~~f~~2/1~gfdcdag1/10
10/1~~~chf~2/1~~~gba~~1/1~~f2d~a1/1~gaef1~f1/1~h1bd~~2/1d1afcehb1/10
10/1~~f1~c~~1/1~~a~~b~~1/1~~f~~1~g1/1~~1~~h3/1d~c~~d~a1/1c~fbag~h1/10
10/1g~h~~~~e1/1f~1~~~~2/1gf~c1~~d1/2d~e1~~e1/1cg~ag~dh1/1bahe1abg1/10
10/1~1egcg~~1/1~~2d1~~1/1~~~d1~~~1/1~~~1a~~~1/1~d~ce~da1/1fehgf~1h1/10
10/2~~1~2~1/1~~~~~h~~1/1b~~~~1~b1/2~~~~~e2/1g~cf1~ce1/1haba1~fg1/10
10/2de~b~1~1/1ce1~g~~~1/1g1e~a~~d1/1b~1~1~bg1/1a~ch1~hb1/1gfbgcf1g1/10
10/1~~~~~f~~1/1~~a~~1~~1/1d~ea~~~~1/2~hd~e~~1/1e~2~1h~1/2~fe~~1~1/10
10/1~~g~h1~2/1~~1~b~~~1/1~~1~c~~~1/1~~~~bg~~1/1~~~f1b~~1/1b1chef~e1/10
10/1~a~~cghg1/1be~~1efe1/2fe~~2c1/1b1f~~h1a1/1ahghabef1/1gecbhe1a1/10
10/2~~~~~~~1/1~1~~~1~~1/1~~c~e~~~1/1~~f~d~~h1/1~~1fb~~g1/1~dcgh~be1/10
10/1a~~~~1~~1/2a~hda~~1/1~h~2h~~1/1~1~~~b~~1/1~f~g~eb~1/1~gcdcfae1/10
10/2~~eag~~1/2~~b2~a1/1ch~2~~e1/1bfa1dbfc1/1ah1cgcgb1/1cdbec1ef1/10
10/1~~1~~b~f1/1~~~~~1~2/1~~~~~~~~1/2~f~egea1/1ehg~fcdc1/1hbd~bh1a1/10
10/2~~h~h~~1/1~~~1~1~~1/1~~~~efg~1/1~~1~dhb~1/1~~~~had~1/1egafbhbf1/10
10/1~g~~1~~~1/1~1~~~2~1/1~~~~~~~~1/1~~f1b~3/1~~c1g~~~1/1~~g~1cbf1/10
10/1~h~~b~~a1/1~g~~1~1b1/1~a~~~~3/1~1~~~~~~1/1h~~d~~~~1/1gcegecd~1/10
10/1~1~d~~~~1/1~1~1~1~2/1~~~~~~~~1/1~~~~~~d~1/1g~~~~be~1/3b~1eg~1/10
10/1~~~h1~1~1/1~1~b~~~~1/1e~2~~f~1/1h~~f~~ae1/1d~~g~g3/1a~~d1ebe1/10
10/1~2~~db~1/1b~c~~b1~1/1hf1~c2~1/1fgh~d~hd1/1hb1~g~ba1/1dag~db1h1/10
10/1~2~~c~~1/1~~~~~a~~1/1~~1~~1~~1/1~~1~df~~1/1~1d~a1~~1/1eaf~ce~~1/10
10/1h~~~1~~2/1f~~~~~c~1/2d~~~~f~1/1~b~~b~1~1/1~1~c1~h~1/1c3b~d~1/10
10/1~~d~a~~~1/1~~g~1~~a1/1c~cf1~~g1/1d~a1~~~h1/1hachd~d2/1bf1bh~hf1/10
10/1~1~~gb~~1/1~~~~c1~~1/1~~~~1ah~1/1~~~~1gdg1/1~~h~~dca1/1edbehc1d1/10
10/1ca~~~1dc1/2fg~~2h1/1~gd~~~ha1/1b1ah~a1h1/1h1fc~eh2/1efha~bcf1/10
10/1~1~~~f~2/1~~e~~1~a1/1~~c~~~~g1/1hcdea~ga1/1fd1gfdch1/1ecgh1f3/10
10/1~~bcg~~~1/1~~c1da~~1/1~~de1fe~1/1~~hga1f~1/1~fc1gbd~1/1fhgefgf~1/10
10/1~baf2~f1/1~edadf~d1/1~1hgh1b2/1~agbcec~1/1~g2a1ag1/1e2hehba1/10
10/2~h~1~b~1/1~~e~~cd~1/1~~1~~bg~1/1~~f~~h1~1/1~fd~~gd~1/1edb~cf1~1/10
10/1~2~b~~~1/1~ch~d~a~1/1~a1~1~ga1/1h1ae~g3/1cgehde1~1/1fabagh~f1/10
10/1de1~~~~~1/1af~~~~~~1/2h~~~~~e1/3~~fceb1/1d1~~chaf1/1bef1h1fe1/10
10/1~~~ga~~b1/1~~~c1~~d1/1~~dg1~~g1/1g~f1a~b2/1e~che~cb1/1hb1cfgah1/10
10/1gh~~1~1~1/1fc~~~~1e1/2g~~~b~a1/1~1df~egd1/1gechgchc1/1edf1bhad1/10
10/1~~~~~~~~1/1hf~~~~d~1/3h~a~1~1/1~1d~g~~~1/1~ge~1cea1/1cb2fb1c1/10
10/1~d1a~~~d1/1~c~f~f~b1/1~h~e~a~2/1~b~1b1b~1/1~df~fdce1/1hageaeg2/10
10/1~d1~~~~2/1~1~~~~~~1/1~~~~~~dg1/1~~~b~1e2/1~cfg1~d2/1becec~cf1/10
10/1~1~~1feh1/1~~~~g2c1/1~1~~2~f1/1~1~~b~~g1/1~aefa~b2/1hcfcgea2/10
10/1~~1~ad~g1/1~~~~f1a2/1~~~hgehg1/1~~~f1b1f1/1~a~dhgh2/1bgbga1e~1/10
10/2g~~h~~b1/1~a~~g~~h1/1~cd~hg~2/1~fc~aeg~1/1e1b~hfc~1/1dfeabagd1/10
10/1~~~2~~~1/1e~~~~~~a1/1c~~~~~df1/1h1~~~~3/1g~~~~g1b1/1fcdhabeh1/10
10/1~f~d~h1~1/1~c~c~aba1/1~b~b~b1c1/1~1~e~1df1/1c1~dcbfh1/1dg~1gdea1/10
10/2d~a1dfd1/1~e~f~bda1/1e1~g~1b2/1cg~1~2~1/1ae~bchgc1/3cfhdea1/10
10/1g~d~b~~~1/2ge~c~b~1/1fhd~f~d~1/2ab~g~a~1/1gd1~ecdh1/1eha~dgeg1/10
10/1~~~1fa~2/1~d~a1db~1/1~g~c~1f~1/1~c~1~2c1/1cfg1~h~a1/1dbcehdae1/10
10/1~1~~bd~~1/1~h~~deg~1/1~1~~a2~1/1a~~~1~~~1/2c~~~~~~1/1cbhgbce~1/10
10/1ea~~~e~~1/1a1~~~af~1/1fh~~~hb~1/3~~~ef~1/2c~cabg~1/2gegbfbf1/10
10/1~~1d~1~~1/1~~d1~~1~1/1~~2~f~~1/1~~h~~2~1/1~fe~~~eb1/1~1h~~1bf1/10
10/1~d~a~~~~1/1~1~1~g~f1/1~1d~~d~b1/1heg~fh~2/1ab1e1ah~1/3hgabdh1/10
10/1c~~~~~~~1/2~~h~~~~1/1~~~a~g~~1/1~~~hab~g1/1bf~ah1f2/1ec1h1ded1/10
10/1~~f~1~~~1/1~~g~~~~~1/1~~1~~~~g1/1~f~g~~~c1/1ec~1~~3/1hgcbe~hb1/10
10/1~h~~cb1b1/2b~~2~a1/1~1~~1~~2/1~1~~g~~2/1hd~~a~1~1/1fb~bgdcf1/10
10/1~hf~ha1~1/1~fg~f1b~1/1~e1~aef~1/1~gd~h1ca1/1~dca1a1h1/1~bdfehcd1/10
10/1~1f~~fh~1/1~ce~~h1~1/1c1h~~1~~1/1dg1d~~~~1/1be1ag~df1/1gbcfe~fa1/10
10/1~~~1a1~~1/1~~~ah~~~1/1~~~2h~~1/1~c~f1g~~1/1bhc1ab1a1/2ag1fagb1/10
10/1~~~~~1~2/1~1~~~1~~1/1~~~~~~~~1/1~~~~1~e~1/1~~~~cf1h1/1edfd1ch2/10
10/1~c~a~~~~1/1g1~h~~~~1/1e~~a1~~~1/1a~a2~~e1/1c~1~c~fg1/2hf~h~1a1/10
10/2b1~a~d~1/1~g~c1~1~1/1e1~h~a~~1/1b1~c~c~e1/3gfbahf1/1gehafdgh1/10
10/1~~gecef~1/1~~1dhde~1/1~~2a2h1/1~~~2dbe1/1ah~bfb1g1/1gac1dehe1/10
10/2~fc~~~~1/1~~ce~~~~1/1~~1h~~~~1/1~~~1~ead1/1gh~ab1fb1/1cdedc1ag1/10
10/1h~b~~d~c1/1f~f~hf~2/1b~hg1dc~1/1heafah1e1/1ac1h1e1a1/2g~1ebcb1/10
10/1d~~1h~c~1/2f~~ba1~1/1~d~~3~1/1~a~~~~1~1/1~e~~~~~e1/1gbch~fgd1/10
10/1g~gd~~~b1/1b~1h~~~a1/2fc1~~~2/1~d1~1~~2/1d1fd~gbd1/1hgdha1c2/10
10/1~~~~1~~~1/1~1~~~~~~1/1h1~~~f~~1/1g1d1~b~~1/1d~f~~g~~1/1hcac~ab~1/10
10/1~~1~~~~~1/1~f~~~e~~1/1~1~a~a~~1/1~~~cbc~~1/1d~1dg1~~1/2b~g1e~f1/10
10/1~~a~~~~~1/1~~1~d~f~1/1~~~1h~e2/1~~~ed~1~1/1~~~dhc~f1/1bd~bad~c1/10
10/1~~~~1h~~1/1g~~~c1~~1/1h~~~d~~~1/1e~f~1a~c1/1dhb~fg3/1e1dbcada1/10
10/1e~~1~f~~1/2~~~ed~~1/1~~~~2~~1/1~~~h~h~~1/1~dbd~a~~1/1b1dfbd~a1/10
10/1~~a~1a~2/1~db~a1g2/1~ec~h~ag1/1~b1~1ece1/1~1dc2fc1/1haghbfcd1/10
10/1~2~~~~~1/1~~~~~~~~1/1~~~~~f~~1/1e~~~~g~~1/1g~~c~1dc1/1hef1h1gd1/10
10/1~~cfd~b~1/1~~e2cf~1/1~~b~~e1~1/1~~1edabd1/1eahgfd1f1/1fhbcgh3/10
10/2f~c~~1~1/1~1d1~~1~1/1~dbf~~~~1/1fhegeh~a1/1e1f1he~b1/1g1cafg~h1/10
10/1c~1b1~c2/1ehbhg~f~1/1fc1fe~ea1/1b1cdadfb1/1gb2ec1c1/2c1abgef1/10
10/1~~~~~~~~1/1e~~~f~~~1/2~~~b~~b1/1~~~~1~~2/1~~~f~~ce1/1~c~h~1bh1/10
10/1~~~b~~~~1/1~~hf~~~c1/1b~f1ga~2/1h2ged~~1/1dcacb1~~1/1c1edc1c~1/10
10/1~~~b~~d~1/1~~h1~~1~1/1~~f1~~~~1/1~~d~~~~~1/1~~hgf~b~1/1c~acga3/10
10/1~1~~~de~1/1~1~~~g1~1/1~h~~~h1f1/1~gh~~c~b1/1~egf~d~c1/1~ahecb~a1/10
10/1~~bed~~~1/1h~1c1~~~1/1d~~2c~~1/3~~~a1~1/2~~~~dea1/1~~hf~fbh1/10
10/2~~~1~1~1/1e~~~~~c~1/1gbd~~~1~1/2ea~~~~f1/1gh1~~fag1/1fedhbgc2/10
10/1~~~~~~~d1/1~~~~~~~g1/1~~~~cf~2/1h~~2hda1/1f~~~~gc2/1g1~ha1h~1/10
10/1d~f~d1~e1/1g~1e1d~2/2~cbef~f1/2~1gbh~b1/1cdaegd~h1/1agca1c~a1/10
10/1~~~~1~~~1/1~~~~~~b~1/1~~~~~~fa1/1~~~~~1dh1/1~~d~~~3/1abf~h~f~1/10
10/1~f~gdc~~1/1~a~ae1~~1/1~1~cg~~~1/1~~bgd~~~1/1b~ec1d~c1/1fe1fabea1/10
10/2~~~e~a~1/1c~~~1~1~1/1g~~~~~~~1/1a~~~e~~c1/3~~f~~g1/1~dfdga~2/10
10/1d~b~~1~f1/2~f~~~~e1/2~b~~h~2/1f~1d~1c~1/1hbef~ba~1/1acagbcge1/10
10/1~d~~f~1h1/1~1~e1~~e1/1~a~1~~~d1/1~1~~~~~2/1fb~~e~~b1/1dchadc~h1/10
10/1~~~c~~~~1/1~~~g~~~~1/1~~~1~~~~1/1~~e~g~~c1/1~~1~f~fb1/1~~bhehe2/10
10/1f~e~~~~2/1g~c~ea~d1/2b1cbg~h1/1hfg1fh~c1/2e1ehd~h1/1ahgb1cgc1/10
10/1~he~~~~~1/1e2~~~c~1/2~e~~~b~1/1~~f~~gh~1/1hgad~a3/1ad1fcb~h1/10
10/2~~~~~1~1/1c~~~~~1~1/1d~~~~~1~1/2~~~~~~b1/1~~bd~ehf1/1cfheacda1/10
10/2~~c1~c~1/1a~ge~fbc1/1hf1h~cga1/1edac~afg1/1bah1~f1b1/1hdcbe2d1/10
10/1~~~f1~~b1/1~~~1~~~2/1~~~g~c~b1/1~~~f~a~d1/1~h~h~g~a1/1~fb1cdbf1/10
10/1~1~d~~a~1/1~d~1~~dc1/1~cg~d~f2/1h1h~h~1g1/1ed1f1ehb1/2fbchach1/10
10/2d~~~~1~1/1~c~~~h~~1/1~g~c~de~1/1fhgedfcb1/1bfhgagad1/2eabd1hb1/10
10/1~~~~~~~f1/1~~~~~~ag1/1~~1~~~e2/1~~f~~~1~1/1~~1fe~~~1/1f1fagfg~1/10
10/1~~~~~~~~1/1~f~~~h~~1/1~1~~2~~1/1~~~c~~~~1/1~f~a~~ce1/1ag2gheg1/10
10/1~~~~~~1~1/1~~~hd~~~1/1c~~1a~~c1/2e~fb~~2/1~a~b1~c~1/1~eghf~gd1/10
10/1~1~~e~~2/1~c~~f~~c1/1~hda1bga1/1c1hcgefb1/1e1bh1ahe1/1fchcehed1/10
10/1bf~f~d~a1/3~a~b~2/1~~~cba~d1/1e~dfc1ce1/1d~1geaga1/2fedfedf1/10
10/1~c~~~b~~1/1~1~~~1~~1/1cd~b~~ha1/3~f~~1h1/1deg1c~3/2fegab~a1/10
10/2~1f~f~~1/1f~~c~b~~1/1ha~1~e~h1/1gd~~~f~b1/2ec~e1ed1/1gdhchfac1/10
10/1~f~~g1~2/1~bcdfg~~1/1e1gacb~e1/1dc1b1aea1/1f1gfdcae1/2cdae1fg1/10
10/1~h~~~bch1/1ha~~~1ea1/1gef~cd3/1h1a~ge1h1/1edbhagbe1/2bhehafg1/10
10/1~1g~~ag~1/1~b1~~f1~1/1~1~~~1e~1/1~d~~cb1b1/1~ba~adf2/1afehgbch1/10
10/1~~~~~~~2/1~~~~f~~~1/2~~~1~~~1/2~~~cah~1/1~~fdhbae1/1~dcgbecg1/10
10/1~~~~~e~c1/1h~~~~h~2/2~g~~d~2/1~bd~~1~~1/1~e1b~~a~1/1cg2a~g2/10
10/1~~~1~d~~1/1a~~~~c~~1/1f~1~bda~1/1e~~~c2~1/2h1~efd~1/1gebeghge1/10
10/1g~bg~~~~1/1b~ed~~~~1/2h1e~~~~1/1fe~h~~~g1/1g1cb~bdh1/1b1bd~cef1/10
10/1~~~~~~d~1/1~~~~~~gc1/1~~~~~hc2/1~~~~~b1~1/1f~hd~1g~1/1c~1afba2/10
10/1~~~~~~~h1/1~~~1~fgd1/1~~~~~4/1~~~~~~1~1/1~~~~~bgh1/1f~~~b1fd1/10
10/1~h~1c~~~1/1bd~~b~~~1/2egd1~~h1/1eafg~~g2/1c1eh~~ae1/1fa1feg1f1/10
10/1~~~~~c~~1/1~~~~~a~d1/1fb~~eheb1/1daf~dca2/1aha~hgbc1/3gcb1g2/10
10/2~~~~~~2/1b~~~d~e~1/2~c~1~a~1/1b~g~~~hg1/1d~c~gc1e1/1gfh~fa~d1/10
10/1~1cehc~h1/1~1ehbg~b1/1~cg1dha2/1c1d2gd~1/1g1hdchaf1/1cb1hdf1b1/10
10/1~~ch~~~a1/1~d1f~~~b1/1~g1c~~~h1/1~d1a~~~2/1~1~fbge2/1~e~1gfha1/10
10/1~f~~~~3/1~h~~~cg~1/1~a~~~dc~1/1~c~~~ba~1/1~d~~h1fg1/1~b~d2gc1/10
10/1e~~ef1ga1/1a~~2~d2/1fd~afeb2/2eg2feh1/1bdcd~hce1/1gahb~gdg1/10
10/1~~~1e~1~1/1~~~~1~~~1/1~~~~~d~~1/1~~c~~1~~1/1~~e~cd~2/1~~ag1g~a1/10
10/1f1~~1~b~1/1ha~~~~c~1/2e~1~~g~1/1~fa1b~1~1/1abcf1e~a1/1dhadga1f1/10
10/2~~~h~~~1/1~~~~1~~~1/1~~~~~~~~1/1~hc~c~~~1/1d1d~1~~a1/2gca~d~g1/10
10/2~~~~1~~1/1~~gh~~f~1/1~~1b~gc~1/1~gdad2~1/1h2f1fc~1/1cb1ahehe1/10
10/1~gd2~~~1/1~f2~~~~1/1dh1~c~a~1/1ce~~ebg~1/1fg~g1hb~1/1ehbdgdfa1/10
10/1~bd~~g~d1/1~h1h~1~e1/1ga2~gbh1/1c1~c~bfg1/1b1f1g2e1/1dhbcabeh1/10
10/1a~ecd~d~1/2~d2~e~1/1~b1~~~1~1/1fec~~f~~1/3efagfb1/1gfdgebge1/10
10/1ha~a1~~~1/1d1~b~~~~1/1ba~1a~~~1/1gf~gd~~e1/1fchdhbab1/2fgfcehe1/10
10/1~e~~~~d~1/1~ca~fe1~1/1~he~dbg~1/1~cf~1ah~1/1fbc~abf~1/1dc1g1ecb1/10
10/3c~g~1f1/1~b1~a~~d1/1~d1ege~2/1~1gf1dgc1/1~f1bhafb1/1~hfacdgc1/10
10/1~~~~~~~a1/1~b~~~~~b1/1~1~~ef~2/1c1~~1e~c1/1f~a~fd~a1/1b~1de1~2/10
10/1~de~~1~e1/1~gcb~~~d1/1hega~~~a1/1fh1gb~~f1/1ececegb2/1chba1bgc1/10
10/1~1~ae~~~1/1~~~1h~~~1/1~~~g1~~~1/1~g~1~~hf1/1~a~1bd3/2efh1bhd1/10
10/1~~1g~~~~1/1~~~ch~d~1/1c~~2~a~1/1ef~agb1e1/1da~1fa~g1/2dgche~b1/10
10/3~~~1~~1/1e~~b~gaf1/1hf~d~1ha1/2g~1~~fh1/1ae~b~c1c1/2gdhabg2/10
10/1~ef~b1~d1/1~2~1~~g1/1~~~~~a~2/1~~~~~b~e1/1~~~~~f~2/1~~~~gafd1/10
10/1a1a~~1~~1/1h~1~~h~~1/2~1~~g~~1/1~~~~~1~~1/1g~1~~~~~1/2f~1~~1f1/10
10/1f1~1de~2/1d~ab1gh~1/1f~ea~agc1/1e~ag~bae1/2~g1~cef1/1fbagh1b2/10
10/1~~~~~~~2/1~~~f~~~b1/1~~~1~~~d1/1~~~c~~b2/1e~~eh~1d1/1h~cbf~db1/10
10/1~~1~1~~~1/1d1~~a~fc1/1f~~~1~b2/1c~~~~~1~1/2~~~d~~~1/1bhfhab~~1/10
10/1d~be~~d~1/2df1~~a~1/1~cg~~ab~1/1~d1agba~1/1hafgef1~1/1gcgbdhce1/10
10/2~~~~~~g1/1~~~~~~~2/1~a~~~~~g1/1bd~c~~~c1/1fba1dfgf1/1gah1acdh1/10
10/1~ae~~~~~1/1~e1~~~~~1/1~1~~~~~a1/1a~f~c~fc1/2~b~d~3/1a~e~gdgb1/10
10/1e~1~fdb~1/1g~~~gf1~1/1b~~~1a1~1/2g~~~e1~1/1hach~c1g1/3habdga1/10
10/1~df~1~~f1/1~2~~f~2/1~~~~~c~~1/1~~~gd1~b1/1fbg1a~~2/1cadcbcb2/10
10/1~~f~a~~~1/1~hg~g~~~1/1~d1a1~~~1/1~1~f~b~~1/1b~h1ea~~1/1e~cgadcg1/10
10/1~~~a1~~h1/1d~~b~~dc1/1b~g1~~e2/1e~d~hef~1/2fe~g1ac1/1fcabfc3/10
10/1~~~e~d1~1/1~~~1~ab~1/1~~h1ac1g1/1~ca~2~2/1~1b~cabg1/1g1ech1ad1/10
10/1~~1~~1a~1/2~~~~2~1/1~~~~~~~~1/1~g~~~~~~1/1h1~~c~~g1/1ace~e~~h1/10
10/1b~~~g~~~1/2~~~1d~g1/1~a~a1bfa1/1~f~d1ced1/1~edhaech1/1chafebh2/10
10/1ag~g1~a2/2a~d~fg~1/3fahd1~1/1~cg1ae~~1/1~ef~h1fg1/1cf1eacda1/10
10/1e~1~~f~2/1c~~~~d~2/1b~~~~a~e1/1cgb~~1dh1/1bfe~~~ca1/3c~fhg2/10
10/2~1~~c1~1/1~~b~~da~1/1~~ad~ac~1/1~~2~1g~1/1~~~gb2~1/1efhbfe~h1/10
10/1~~~~~1~~1/1~~~~~1~~1/1~~~~e~~~1/1~~c~b1~~1/1f~1~e~~~1/2ef~1ceb1/10
10/1~e1a~~f~1/1~f2~eb~1/1~h1~a1e~1/1~b~~ghfa1/1~a~~afdg1/1aegdgbgh1/10
10/1~b~~b~h2/1~f~~h~f2/1~1~hb~hf1/1fh~b1c1e1/1bcdfbgag1/1d1gbaede1/10
10/1~c~~ac1~1/1~1~2e~~1/1~~~1~1~~1/1~~~a~d~~1/1~~~hcfea1/1~gfegehd1/10
10/1b~~~1b~g1/1fh~~bh~e1/1aeg~ag~2/1bchg1b~d1/3fbh1df1/1gahcdged1/10
10/1a~a~~1~~1/1c~e~~f~g1/1d~g~~1~2/1c~ad~c~~1/1a~fh~gfa1/2ehfahdc1/10
10/1~~~~~~d~1/1~~1~~~1~1/1~~~~~~~2/1~d~~~~~g1/1~1~~~~~2/2fdgf~~g1/10
10/1ba~~ac~h1/3~~fd~d1/1~1~~db~a1/1~~~~c1~b1/1fbgegab2/1hfeb2d2/10
10/1c~a~~~~~1/1d~1~~~~~1/1e~~e~~~~1/2~a1~~~~1/1~be1bed~1/1cgbagbed1/10
10/1fg~h~~g~1/2dbd~~dc1/1fcgae~1h1/2gchc~1g1/2dh1g~eb1/1bf2afbc1/10
10/1~~a~1g~d1/1~~b~ad~2/1h~1~1cgb1/1gca~f1f2/1db1cb~c2/1hgbdc1g~1/10
10/1~~~1~~~~1/1~~~1g~~~1/1~~~~1e1g1/1~~c~af~2/2~b~2~b1/1c~d~aefd1/10
10/1~~~g~~~2/1~~~1~a~~1/1h~~~~e~~1/1c~~e~g~d1/1d~~b~1~f1/1ah~g1bfc1/10
10/2had~~~d1/1f1cg~~~b1/1g3~~~g1/1db1~e~~c1/1bhe~a~hg1/1dbfcbdfd1/10
10/1~~h1~~h~1/1~~2~~e~1/1~~ha~~bg1/1a~de~h3/1behfcfce1/1abfcad1g1/10
10/2~~~~~~~1/1f~g~a~~~1/1e2~h~~~1/2~~g1~f~1/1~c~fh~1b1/1gbeac~~f1/10
10/1~~~~~~~g1/1d~~f~~~a1/1e~~1~~e2/1ac~d~~g~1/2h~b~~bh1/1~gf1~2c1/10
10/1~feg1~1~1/1~1d1~~1~1/1~~1~~~~~1/1~~1~~~f~1/1d~g~e~1~1/2~a~1adf1/10
10/1~~~2~~~1/1~~~~a1~~1/1h~~bh~a~1/2~fh1~1~1/1cecgf~1c1/1ebgbhgeh1/10
10/1b~~~~~1~1/1a1~~~~1~1/2~~~~~~h1/1~~~ad~~g1/1fg~gfe~a1/1eah1hb~d1/10
10/1~~~~~a~~1/1c~~~~1~~1/1g~~~~f~2/2~1fbe~~1/1abegf1g~1/1f1cd1fd~1/10
10/1~~b~2~~1/1~~g~~ca~1/2~b~~1b~1/2~1~edf~1/2~~~1e1c1/1d~efcag2/10
10/1~~c~~1~~1/1e~f~~~~a1/2~e~~~~d1/1~~bg~~h2/1e~2~~cb1/1dcagfgh2/10
10/1c~1~1~g2/1b~b~b~ch1/2~g~gag2/1bfhf1beh1/1hb1dhe1a1/1bdbgfchg1/10
10/1a~1~g~~g1/1b~a~cd~2/2d1~1a~b1/1egc~cb~a1/1bhe~b1~2/3bgcbhe1/10
10/1~e~~~~~~1/1~1~~~~~~1/1~f~~~~fc1/1~1g~~~eg1/1~ehc~b1b1/1~hb1~ehf1/10
10/1c~1e~e~~1/1b~~h~1~~1/1c~~1~~d~1/1dh~~~~hb1/1gc~~~g1g1/1b1abc1ga1/10
10/1~~1~~~~~1/1~~~~~~~f1/1~~~e~~d2/1f~~h~~ha1/2e~fd~ch1/1acfc1d1f1/10
10/1b~1~~~1~1/1c~~g~~~~1/1ae~d~~h~1/2ab1~~b~1/1gbhg~fgh1/1dcfahgde1/10
10/1~~~b~1~~1/1~~~f~~~~1/1~f~c~~b~1/1gb~1hec~1/1a1gae2f1/2dheadfa1/10
10/1e~1b~~~~1/1b~~1~~c2/2~~g~~1~1/1~~bc~~~~1/1~~2~~g~1/1e~~e1~c~1/10
10/1g~1~b~~2/1f~e~1~~~1/2~1~~~~b1/1c~~~fe~h1/1hbe~hdge1/2c1db2h1/10
10/1~~~c~~1~1/1~~~g~~~~1/1~~~1~~~~1/1~~~~~~~2/1h~~~c~b~1/1d~bghd3/10
10/1~1~1c~~~1/1~~~ce~e~1/1ch~1af1~1/2gc1e1~d1/1~ba~2~b1/1~hg~efde1/10
10/2~~~~~~~1/2~~~~g~2/1~~~~~d~~1/1~~g~~1~~1/1~dfdf~~b1/3db2bd1/10
10/1~daba~~2/1~gc1g~~~1/1~1g2~~~1/1bhc1b~~~1/1ead2acg1/1be1c~bha1/10
10/1~~g~~~~~1/1~~1~~~~~1/1~~cb~~~~1/1~~1d~hdf1/1~~2~g1c1/1~f2~hgb1/10
10/1h~g~d~fg1/1f~e~1dhc1/2~hdeg3/2agbgbc~1/1cb2e1e~1/2ebhgcad1/10
10/2~~~~~~~1/1~f~~~~b~1/1~1~~ah1g1/1~f~dbd~b1/1~e~2a~2/1~he~1ga2/10
10/1~~a1~~~c1/1~~1~~~~2/1~~~~~~~d1/1~~~a~h~2/1~~bh~1~c1/1edc1~eb2/10
10/1~~~1~~~~1/1~~~1~~~~1/1~~~1~~e~1/1~h~~a~d~1/1ec~~f~h~1/2adhcf1~1/10
10/1~1g~2~~1/1~~h~~1~~1/1~d1~~~h~1/1c1b~~~dg1/1f1ah~fce1/1eabdhcha1/10
10/1~~h~e1~c1/1~~1~1e~2/1~~1~~fbd1/1~d1~~1af1/1eac~~~fb1/1cgdc~heg1/10
10/1~bc~~~~h1/1~g1~~~~b1/1~1~~~~~2/1fef~~~~c1/1a2~~~1g1/1c1e~gh~a1/10
10/1~1~~1~~~1/1~a~~~f~~1/1~1~c~1d~1/1~~~d~~1~1/1~~bacb~g1/1gbe1e1af1/10
10/1~~~~~~~~1/1~~~~~~~~1/1~g~~h~g~1/1~c~1d~f~1/1~b~hf~1b1/1~ace1aed1/10
10/1~~b~~~d~1/1~bh~~c1~1/1~c1~~e1c1/1b1aed1cd1/1fcdfegda1/1bahcacfg1/10
10/1~~acg1~h1/1~~ea1b~b1/1~dh1ef~e1/1cfecgacd1/1eagdhdg2/1fb3gh2/10
10/1c1~~1~~~1/1hdh~~~~~1/2f1~~h~~1/1~1~~~e~~1/1fae~~1~~1/1hchd~a~~1/10
10/1~ae~~1~~1/1~1b~~~~~1/1~~1~f~~~1/1~~g~1~~~1/1~dcfeg~a1/1~hbca1hd1/10
10/1~2~g1~~1/1~1g~1~~~1/1~ec~~~~~1/1~2~~~~~1/3dc~fb~1/1~agfbdae1/10
10/1~1~~e4/1~~~~1~bf1/1~cf~~chg1/1~h1~~d1e1/1bd~g~g~2/1gagcabhb1/10
10/2~~~~~~c1/1d~~~~~~2/2h~~d~~~1/1~gb~b~~~1/1~1hgac~2/1ehfef1ea1/10
10/2~~1b~~g1/2~c~g~~e1/1~~1~1~~2/1~~f~d~~2/1~~e~gf~~1/1~dg~bc~g1/10
10/2~~~~~~~1/1~~~~~~b~1/1~~~~~~1~1/1~~~~f~~~1/1eg~2~~e1/1g1gfb~~g1/10
