14,25,10/3~d5/3~6/2~~c~4/2~a1~1~b1/2~g1fg~2/1ecbfde~a1/10
12,11,10/5a~3/6~3/6~~f1/2e~1g~~2/3~~dh~h1/3~dfgae1/10
12,17,10/10/7~e1/7~h1/3c3~2/3agh~~c1/2~gafef2/10
15,18,10/6f~2/7af1/3a~1ah2/4~~g3/4e~b3/1db~hge~d1/10
20,25,10/3a~5/4e1e3/3~h~dh~1/1a~~1~2~1/1g~cgdgd~1/1dfhcef1h1/10
12,13,10/4g5/3~c5/3~d~f3/3~1~4/2h~a~1h2/1gf~c~ad2/10
23,28,10/1a~d2~f2/1h~1g1~3/2~1c~c3/1gb1ahb~d1/2g~db1~2/1ge~eafad1/10
13,18,10/10/5b1~e1/3b~f~~f1/4~1~~h1/4~~~dc1/2h~dcbe2/10
20,27,10/7g2/1c3a~b2/1f~1~e~h2/1d~1ba~df1/1h~1e1~g2/1gf~cb~f2/10
29,34,10/1h1~ef4/1d~~dg4/1a~cehb~2/2fad1c~a1/1c1gb~b~g1/1hchebdac1/10
22,20,10/4g~e~2/5~d~2/2b~1~f~~1/2ah1~dge1/3bg~1hf1/1cafdfcdg1/10
8,26,10/10/10/10/4ca~3/1e~3~~2/1baec~~b~1/10
12,9,10/1~g7/1~3e4/1~g2f~3/1~a3~3/1~3df~d1/1~a3heh1/10
28,40,10/1g~a2~cd1/1d~gh1~ag1/2~ce~~f2/1c~1g~c3/1a~fcaba~1/1ebedec1h1/10
16,20,10/3~e5/3~6/1fg~c5/1gh~d~a3/1a1~1hc~2/1f~~~eada1/10
16,19,10/10/2a4d2/2c~1~~b~1/2a~1~f1g1/3~~ce~e1/1fg~hbh~d1/10
11,9,10/5~d3/4a~4/4b~4/2eh1~4/3abd~3/3dhe~3/10
28,35,10/1b~2a~gc1/1cfd1d~fh1/2ef1a~3/1~gh1d~~g1/1~fe~fb~d1/1g1febh~e1/10
30,42,10/2gd1b1~d1/1hce1ec~2/1dhc~a1~2/3h~heab1/1ege~1gfe1/1fdh~gd1d1/10
17,18,10/3gf~4/2~da~c3/2~2~f~2/2~e1~a~2/1e~1h~c~h1/2~fgda~f1/10
29,28,10/1d1h4h1/1e~e3~a1/1h~fgh~b2/1f~chg~cb1/1de2cbhd1/2bhdgac2/10
19,25,10/1b~e3~f1/1c~2~a~2/2~e~~1e~1/4~g1f~1/3a~d~1b1/1c~gaefdf1/10
12,27,10/1f~7/2~2~h~b1/2~2~1~g1/1c~1~~1~2/2~~~g1~2/1h~dfbcd~1/10
12,20,10/4~g~h2/4~1~3/4~1~3/3~fd~3/1ad~g2c2/1fh~c~~a~1/10
16,23,10/7g2/6~f2/5c~3/4~b~ea1/1g~~g1~a2/1a1bfgeca1/10
10,18,10/3h~5/4~5/4~1~b2/2~d~~~e2/1d~f~~~3/1fe1~~~hb1/10
13,17,10/1f~~6/2h~6/2b~6/3~3~e1/3~ac1~b1/2face~he1/10
10,6,10/4~a4/4~5/4~5/4~3f1/1b~1a1~~e1/2b1c~ecf1/10
12,16,10/5~c3/5~4/1d~~1~4/2f~1~4/2a~~~c3/1fe~gdgae1/10
19,15,10/5~gb2/5e4/4~d~3/4dfef2/1c1cb1ga2/1b~bh~ahb1/10
21,30,10/3ag~2a1/2~h1~1~f1/2~1g~1~e1/2~b1~f~2/1~~ehch~2/1bchagdgd1/10
13,30,10/10/1a~~c5/1e~~6/1a~f~~4/2~1c~d3/1ad~f~heh1/10
8,10,10/5~f3/5~4/5~h3/1c~1~~4/2c~h5/2f1g~~~g1/10
21,22,10/10/6~e2/5f~1b1/1dg~cb~~d1/1gd~acega1/1cg~c1dfd1/10
13,24,10/7~d1/3e~2f2/1d~1~1~cf1/2~1~1~1a1/2~1~~~~e1/1bc~~a~eb1/10
10,11,10/4c1~d2/4g~~g2/5~~3/4h~~c2/3~d~~3/1h~~e~~~e1/10
10,11,10/10/3~b5/3~6/3~6/1c~~f~f1h1/1h~bc~g~g1/10
10,10,10/7~b1/6~a2/3g~1~3/4~1~3/4~~d1b1/4cdcga1/10
25,29,10/3f~b1~f1/4~h1~a1/2h~~2~2/1c1~d~hfa1/1ae~a~geh1/1hcadbafg1/10
12,16,10/10/3~g5/3~3e~1/1b~~4~1/1h~~hgc1~1/1d~dc1b1e1/10
13,14,10/10/1~c3h3/1~d~1~a~~1/1~1~1~1e~1/1~g~~~1h~1/1cdgae~d~1/10
17,22,10/5b4/3~bg~3/3~e1~3/1c~~1f~3/1d~gdb~~a1/2hcfea~h1/10
26,31,10/1~adc2bd1/1~g3hf2/1~e3eg2/1~a~c~cd~1/1edgf~bg~1/1d1f1hcf~1/10
15,18,10/1c8/1f~7/2~7/1h~b2g3/1gfde~b3/1hecd~h3/10
14,23,10/3f~5/4~2~c1/1e~1~2~2/1b~1~2~f1/1d~1c~~~a1/1hehad~~b1/10
12,24,10/10/1da7/1be~6/3~3h2/2~b~1~e2/1h~f~f~da1/10
30,34,10/1gd~2f1c1/1fa~1~g~b1/1be~1d1~g1/1a1~~aedc1/1ea~~bha2/1hbdedfga1/10
12,20,10/2d~2e~b1/3~~2~2/4~2~2/4~1~~h1/1b~1~~~~g1/2fged~fh1/10
18,30,10/1hg2b~3/1b2~e~3/1ad~~1~a2/2g~~e~d2/1h1~d1~3/1eacac~3/10
20,29,10/1c~1dg~1a1/2~3~1g1/2~3~1b1/2~fg~~~g1/1~b1dge~e1/1hchaf1~g1/10
9,10,10/10/3b1~~b2/3e1~4/2~c~~~e2/2ca~1~3/2a1~~e~2/10
26,30,10/2h4eg1/2a~1a~fc1/1g1~~d~gf1/1af~gh~3/1gd~1ea1g1/3adgfgc1/10
25,29,10/4d5/3ga~2c1/1g~fdf1~b1/1e~d1bh~2/2~gbhb~d1/1adaebe~c1/10
21,26,10/3bae4/5c2a1/3dcd~~g1/1c3g~~f1/1e~cdf~~2/2~1fbdgb1/10
7,12,10/10/5~d3/5~4/1b~1ab~3/2~3~~2/1b~~~d~a2/10
17,20,10/2ch~5/4~1b~2/1a~1c1f~2/2~1b~d~2/1~~~d~1~b1/1bfehe~af1/10
14,23,10/1ag~6/1h1~1~g3/1c~~1~4/3~1~4/1eh~~~d3/1da~~cbeb1/10
14,35,10/10/5h4/5b~~2/6~~c1/1d~~fe1db1/1e~gcf~hg1/10
10,14,10/1g~4~b1/2~4~g1/2~4~2/2~4~2/1a~~~1~e2/2~e~adbd1/10
26,38,10/1hf~~5/3d~~2g1/3bh~1~h1/2h1a~g~c1/1~adefebg1/1dcbhabad1/10
11,20,10/1d~7/2~7/2~4~e1/2~1a1~bg1/1~~~d~~a2/1g1db~~e2/10
17,24,10/2~d3c2/2~3~g2/2~2g~3/2~g~f~3/1b~efhg3/1d~c1gheb1/10
17,22,10/4g~4/4d~4/5~gb~1/1b~2~c1~1/2d~~h1gb1/1fb~cgdfh1/10
24,37,10/2g7/1fe~6/2b~2hb2/1~h~~eca~1/1h1gcfhf~1/1afdbaead1/10
17,16,10/10/1g~7/1eg~1hf3/2be~g4/3b~fd~d1/2ag~gha2/10
23,30,10/3e1~h1d1/3ag~g~e1/3bef1c2/4hc~b2/1c~1af~h2/1d~aegc3/10
12,11,10/10/2b1e~h3/2a~c~g3/2b2~4/3~~h~c2/3e1a~g2/10
17,23,10/2c5b1/2a~3~h1/3~3~f1/3a~gche1/3d~e4/3fdbg~f1/10
19,25,10/2g~~h~~a1/1abe~1~~b1/4~1b~c1/4~fh~2/2gh~ea~2/1ab1~1fc2/10
22,27,10/7~c1/1d~h~2~2/1e~d~2~2/1h~1~hb~2/1f~bacab~1/1hfgeagca1/10
24,24,10/6b3/5ca~2/1c~1~d1~a1/2~~~fa~e1/1cbg~hfab1/1dfbhcaeg1/10
31,34,10/1a3g~e2/1fd~1e~h2/3~~bae2/1bcafdbc2/1egdafda~1/1gegf1hea1/10
24,31,10/1c1h~b4/1e~d~e~3/1fg1~1~~2/1e2~gce2/1h~~~bdah1/1cfadfhf2/10
10,25,10/1~f7/1~2~df~2/1h~1~2~h1/2~1~1~~2/2~1~~~~d1/2h~cd~c2/10
23,36,10/1bdhc2~f1/1g1b3~2/1e~d3~2/2g1a~1~e1/1bfh1~1~b1/1geab~cbe1/10
18,29,10/3f~2~h1/4~2~f1/3d~~1~e1/1e1cg~1~b1/1a~bf~c~h1/2agh~d~2/10
12,21,10/3d~5/4~5/3h~5/2h1~~~a2/2e~~gce~1/3ca1gd~1/10
13,17,10/10/10/2d~e5/3~1~e~d1/1cf~~~f3/1ade~cad2/10
16,25,10/2g1e~1~f1/1hc2~1~h1/1ba~f~1~e1/3~e~1~2/2~~1e~~2/1ab~1cg~2/10
9,12,10/4~c4/4~f4/4~1d~f1/4~~b~2/2d~~~1~~1/3~~~cfb1/10
12,12,10/1g~3c~2/2~4~2/1g~4~2/2~4~2/1b~~a~~e2/1a~~ebaca1/10
14,12,10/1d~~6/3~6/2g~2f3/3~c~e3/2~hd~cb2/2g1behf2/10
29,38,10/4~adeg1/3~bcac2/3~hd2g1/2~de1bfh1/2hbdfhb2/1dafhefh2/10
22,21,10/2c~a1f~2/1ae~1~a~2/3~~d1~e1/1d~~~1g~2/1ed~~1e~f1/1bcbcgcfd1/10
20,33,10/1e4c3/1agf~1g~2/2b1~1c~2/2dhf~b~2/1a2a~1~2/1fd~hd~ed1/10
21,13,10/1a~2b4/2~2f4/1b~2a1ab1/2~~~e~c2/2a~hf~fb1/1bhfb1cbe1/10
10,15,10/5a~3/6~3/3~b1~3/3d2~3/3gac~~c1/5b~gd1/10
19,31,10/5ec3/2a~~bh3/2f~~g4/2a~h5/3~1h~f2/1agecbfgf1/10
20,29,10/1dh~1f4/3~~g4/1ha~~5/3~~a~eb1/1e1gab~ah1/1a~hdfh3/10
16,20,10/3~~ad3/3~e1e~2/2h~3~2/2g~h2g2/1d1~g2d2/1g~af~~fd1/10
22,26,10/1h5ef1/1db~~1~bg1/3e~g~3/1~fd~a~e2/1~2dh~b2/1hebha~a2/10
10,23,10/4h~~b2/5~~3/5~~3/5~~d2/1~a~~~~eb1/1e1~h~~ad1/10
10,15,10/3bh~~3/2~f1c~3/2~3~3/2~2h~3/2~1~b~3/2ac~af3/10
11,9,10/1f~7/2~2~~d2/2e~1~4/1~b~1~4/1~f~f~4/1b1deh~h2/10
13,19,10/5~~c2/5~h3/5~4/3a~~ad2/1d~d~f1h2/2~bcbf3/10
16,18,10/1f~h6/1h~g~~bg2/2~1~~4/2~eg~1~e1/1~~cf~~~a1/1cf1a~b~2/10
24,40,10/1~c1~bg3/1~2~ca3/1~1~~3c1/1ce~fh1~e1/1gc~da1b2/1eahceadf1/10
18,17,10/10/6~ec1/2d2f~3/1af1ec~b2/1fd~c1~f2/1bf~a~fc2/10
12,11,10/7~b1/2~b3~2/2~d~2~~1/1~~1~1~e~1/1~2f~~1~1/1bfdgegb~1/10
20,26,10/3~fbga2/3~1d4/2e~~f~f2/2f~~1~h2/2g~ged3/1dfa2hbg1/10
10,20,10/10/1h~7/1e~7/2~1a~~3/2~~2~d~1/1h~dbeb1a1/10
14,17,10/4~g2c1/4~2~a1/4~a1~2/3~cf1~2/3~a1b~2/1c~cbga~f1/10
24,29,10/2~hg~g3/1a~1b~h~2/1b~2~c~~1/1cbe~~1d~1/3haf~e~1/1adcfbeah1/10
19,29,10/2c~1e~c2/3~2~3/2f~2e3/1g1~1~fh2/1a~~~~agf1/1hfehfhe2/10
9,12,10/10/7~d1/1f5~2/1c~~h2~2/1h~~1h~~f1/2c~~d~3/10
10,15,10/3~e5/3~2~f2/3~2~b2/3~2~d2/3~b1~3/1d~ge~~fg1/10
9,14,10/10/1d~7/2~7/2~1~~~b2/2~1c~1d2/1dchb~~h2/10
11,17,10/10/6~bf1/5~~ea1/4~g~f2/3~~1~eb1/1ga~g~~3/10
14,19,10/2~g6/2~7/1e~2d~3/1a~2b~~~1/1g~~2g1b1/1df~aefg2/10
12,16,10/1a~3~d2/2~c2~3/2~h2~3/2~3~3/1c~g2d3/1hba~~bg2/10
13,20,10/6c~2/7h~1/7cb1/6~fa1/3d~1~d2/1b~bf~~ah1/10
19,24,10/1g~2dg~2/2~1~g1~2/1e~1~2~g1/1a~1~a~~h1/1b~e~f2a1/2bghgf~d1/10
12,24,10/10/3f~~b3/1~c2~4/1~1~d~4/1~~~ec4/1~~gbegdf1/10
25,30,10/1d~d~5/2~e~g4/1h~a~bd~f1/2~1~ec~c1/2~hdgfba1/1c~gecgdc1/10
25,36,10/2e2h1c2/2d~1b~b2/3~~1ba2/3~fehfh1/3~dgd1a1/1aehbcagb1/10
15,13,10/4~h4/4~1d3/3~~~ae~1/3~1ge1~1/2b~g1d~~1/1ag~hbg~e1/10
15,19,10/3~a5/2d~d1g3/3~1~e~2/2b~1~1~2/3~ag~f2/1~ebhfhb2/10
14,20,10/10/3b6/3a~5/4~~~c2/2~g~fd1h1/1fbh~cadg1/10
27,43,10/4g~4/3eh~1a2/1~efb~~hg1/1daed~ech1/1e3~be2/1fdbfcfhd1/10
12,19,10/5~b3/5~2h1/5~~ae1/4~~~1g1/4~c~ae1/2gb~h~1c1/10
32,33,10/2dg1eb3/1~ge~cd3/1~ca~ec3/1d1ch1h1g1/1bgagdcge1/1hadae1eh1/10
32,33,10/1g4~e2/1dbg2~1a1/2had~c~b1/1gbeb~h~f1/1hfbcfbea1/1g1ehgabg1/10
23,30,10/3a~1c3/4~~f3/1h2~gh~2/1fef~cf~~1/3cab1~e1/1hfhbahgf1/10
31,23,10/1f1d~a1f2/1a~fg1~e2/2egcb~d2/1~ge1f~h2/1ecgeh~1d1/1gaecacbe1/10
12,16,10/6~h2/6~e2/4e1~3/4f~~3/1db~gf~3/1g1bdh~3/10
32,38,10/1dh3gf2/2ef2fe~1/1bdb2h1~1/1fba~~abh1/1e1ec~gea1/1hchebagh1/10
28,35,10/2ag~1~c2/1~hc~c~3/1b2~g~a2/1he1~a~dg1/1dhg~bhca1/1hadc1dhe1/10
8,7,10/2e~6/3~6/3~6/3~6/3~ha4/1agheg4/10
17,13,10/1f~7/1e~~a5/2h~h5/2f~3~b1/2h~~eb~g1/1da~~dcgc1/10
23,28,10/2d7/2bd2g3/1ehe~cf3/1b1a~ab~2/1a~1~gf~2/1dhecheh2/10
14,22,10/3~db~3/1e~~2~3/1d~3~e2/2~~a1~3/1cg~c~~~2/2a~f~gbf1/10
16,19,10/6~c2/4d1~g2/4b~~3/2b~1~fg2/2ahd~1a2/3fb~cbh1/10
10,13,10/10/10/2~e3~a1/2~h~2~2/1e~1~f~~g1/1fa~~h~g2/10
14,20,10/1e~7/1b~1a~g~h1/2~1c~1~2/2~2a~~2/2~~ge~~b1/1e~~b1hc2/10
17,26,10/10/1ga~6/1b1~6/1g~~c~~~e1/1ef~ae~da1/2b~da~fc1/10
22,34,10/7~h1/1c~b2~c2/1e~1~aba2/2~1~gcb~1/1~g~hdghe1/1~c~bg1dh1/10
20,20,10/2~e6/2~3~f2/2~1~h~3/2g~g1~~c1/1df~chfgb1/1fedf1bfg1/10
17,30,10/4f~g3/4g~f~d1/5~1~2/4h~1~f1/4a~cec1/1eb~d~bah1/10
12,18,10/1b~2f4/1e~1~g~~e1/2~1~1~~2/2~1~1~~2/2~f~1~b2/2f1fc~cg1/10
20,30,10/7~c1/7~f1/2e~3~2/2f~~1~~a1/1cbdefagb1/1bgfbcdf2/10
12,16,10/4h5/4b~4/3~d~~~h1/3~2~~2/1e~c2~~b1/1gcd~e~g2/10
17,24,10/5g~e2/3h~b~3/4~1~3/1d~1~bhdc1/2~1~ga1a1/1e~g~fc~f1/10
18,28,10/1c~f~5/1da1~5/2d1~2a2/1~b~~~hb2/1a1~gcgc2/1df~h1c3/10
24,32,10/1f~a~a4/2~e~gd3/2e1h5/2fdc5/1gbabaf~2/1dacdha~e1/10
19,30,10/1be~2c~2/3~3~2/1h~~1b1~2/2~d~f~~2/1ad1hag~f1/2g~aface1/10
19,19,10/3b6/2~e~~4/2~1b~~a2/2cfc1~3/1~fgdge~d1/1gcb1ag~c1/10
9,9,10/10/1~f~fb~3/1~1~2~3/1~1~2~3/1~a~1f~3/3~ahb~h1/10
26,31,10/3~e3f1/2a~f~c~b1/1dg~1~de2/1bd~1~bdb1/1ce~h~gae1/1b1db~h1d1/10
12,12,10/4~eh3/3h~5/4~5/2ecb~4/4f~a~2/1f~~cb1a2/10
10,11,10/10/10/4~c1~a1/1a2~2~2/1h~1~f1~f1/2hc~b~b2/10
20,28,10/10/1fg4b~1/2f4d~1/1ch~~e~b~1/1d1~ad~ce1/1fh~g1afd1/10
12,15,10/2e3b~d1/2c~2e~2/3~1~f~2/3~1~1~2/2g~f~~g2/2d~c~1b2/10
13,23,10/2f7/1~b~2~he1/1~1~2~dg1/1~1~2~h2/1~g~~~~1g1/1eb1~~~fd1/10
11,11,10/1e~2h4/2~1af~3/2~2g~3/2~e2~3/2~a~1~3/2eg~~~fh1/10
30,41,10/2baf2~a1/1fgbd2~g1/1b1fh2~c1/1g~1c~d~e1/2~ch~gdh1/1eahcbdad1/10
12,15,10/10/1eg~2~f2/1hf~2~3/1e1~2~1b1/2~~2~~d1/1~~~hgd~b1/10
13,22,10/7f2/1b~3~e2/1a~a2~3/2~g~~~3/2~c~~fa2/2~1~ebgc1/10
18,28,10/1g~4~g1/2~4~2/1h~4~f1/1da~~2~h1/2bf~~ce2/1gcde~agb1/10
10,27,10/10/7a2/6~b2/1bf~~~~f2/3~~ad3/1d~~2fb2/10
30,38,10/1bgh~1e~2/3fc2b2/1ac1h1~f2/1hfdb~~3/2achbcag1/1hdhdadhe1/10
15,16,10/1b~f~d~3/2~e~a~3/2~1~1~g2/2c1~e~3/2ag~f~3/4bd~gc1/10
12,15,10/10/7~a1/7~2/6d~e1/3h~2~g1/1e~ghabdb1/10
28,38,10/5c2g1/3~ge~~e1/1af~ca~1g1/1db~1b~f2/1cabahdah1/1e1eb1bgb1/10
25,22,10/2h2f~~d1/2e~hc~~2/1ha~ag~~2/2h~b1~fd1/1a1~1d~h2/1hcbagedh1/10
8,7,10/3~e5/3~c~4/3~1~4/3~1~~3/2e~2~3/2f~f~aca1/10
14,36,10/1g~3d~2/2~~~2~2/1~f1~~h~~1/1~2~~1h~1/1c~e~~af~1/1ae1~~cgd1/10
14,18,10/1c8/1b~7/2~~d1f3/2~~1~d3/1~~cf~c3/1cgba~a~g1/10
15,17,10/10/1~c2hd~e1/1~4e~2/1~5f~1/1~1f1bhe~1/1~~cedbh~1/10
29,25,10/1ghd3ec1/2d2c2h1/1~b1bf~be1/1~d~hb~gb1/1~1heah3/1bfdg1gae1/10
20,35,10/2cfe~4/2fabe~3/1abh2~3/1h1d~~~3/1b~2~~b2/1had~cad2/10
28,42,10/2~h~ad3/1h~e~1c~a1/1f~h~da~d1/1ahg~f1~c1/1gebfb1~2/1hdgaeg~2/10
21,22,10/1b~cf~4/2~bd~4/1a~dc~2h1/1b~2~~~e1/2~gea~~b1/1d~bgfhb2/10
26,33,10/6~f2/4e~~1c1/3ahd~1a1/1~~fgc~~e1/1bdhagehg1/1f1gfcagb1/10
24,17,10/1f~g2e~2/2~f~~a~2/2~1~h1~c1/2~d~fc~g1/1g~c~eg~b1/1fhfcadbe1/10
10,9,10/4bc~3/3~d1~3/3~1~d~2/3~1~1~2/2~df~b~2/1f~2~c~d1/10
12,21,10/2h~6/2b~6/2e~6/1f1~1~e3/1ca~~~1~c1/2h~~bf~a1/10
11,18,10/2b~6/3~4c1/3~3~h1/3~2~~2/2dg~1~~b1/1~cd~h~hg1/10
14,21,10/6f~d1/4g~c~2/1~e2~1~2/1~3~ha2/1~~g~~c3/2~hd~aef1/10
17,22,10/5fg~2/3f3~2/2~b~h1~2/2~g~e1~g1/1b~1~f~~h1/2aehagf2/10
20,27,10/6c~2/1b~~df1~2/1f~e3~2/1b~gd1h~g1/2~de~a~c1/1c~ab~d~h1/10
30,29,10/2~df~~hg1/2~2~~3/1e~1hbd1h1/2b~ecfag1/1acefhbgb1/1edcdcgh2/10
31,31,10/1e~de1~eb1/1a~a2~1e1/1g~b2~~h1/2~fbg~fg1/1gcbhd~gh1/1dbfcbfdb1/10
23,35,10/2gh~h4/3b~1~g2/4b~~b2/1acdg~~3/1efef~~fd1/2g1ceaef1/10
10,7,10/2g~6/2e~6/3~6/3~1~h3/2~f1~ea~1/2fgh~2a1/10
20,21,10/5g~3/2~fc1~3/2~1f~~3/2~gb~g~b1/2~faefde1/1a~a1dgca1/10
30,33,10/3c4e1/2~g~1h~a1/1a~1~hcb2/1fdb~ceh2/1hbhbdhe~1/1cgaefcba1/10
18,22,10/3b~~1f2/2~g1~~b~1/2~2~~df1/2~cae~3/2~1da~3/1dhcehgd2/10
12,17,10/10/6~d2/6~h2/1g~2ed3/1bh~~a4/1ea~~gb3/10
24,36,10/4d~~f2/1~hbe~~g2/1~efc~~h2/1~g2c~1a1/1bh~gd~~c1/1ebefa~~b1/10
10,15,10/4b~4/5~4/5~1~h1/5~1~2/2d~f~~~2/1be~dhf~e1/10
14,27,10/10/6~b2/2d~~1~3/1hge~1~3/2b1fe~3/1chfdc~~g1/10
14,20,10/3~g5/1e~~1a~3/2~~b1~3/2d~c~~3/1~e~1e~e2/1g1~a1cbd1/10
14,24,10/7a~1/3c~2b~1/4~3~1/1d~1~~2~1/1hgfh~1~~1/2bgdcaf~1/10
23,21,10/2g~f5/3~bch~2/2a~hgc~2/2c~2hd~1/2e~fgah~1/2cbe1hdc1/10
11,12,10/7~d1/2d~~f1~2/3~1e~~2/3~h1~3/3~e~~3/1c~cf~h~d1/10
12,30,10/7~c1/7~2/5~~~2/3~~f~bc1/2~~bdeh2/1e~d3fh1/10
12,15,10/4d~~d2/3f1~~3/2~c1~~3/2~2~~3/1~~~~1g~~1/1chaf~ahg1/10
